<svg width="334" height="24" viewBox="0 0 334 24" fill="none" xmlns="http://www.w3.org/2000/svg">
<path d="M0 0H334V14C334 19.5228 329.523 24 324 24H10C4.47716 24 0 19.5228 0 14V0Z" fill="#EBE3FD"/>
</svg>
