<svg width="20" height="20" viewBox="0 0 20 20" fill="none" xmlns="http://www.w3.org/2000/svg">
<path d="M17.334 5.41536V17.332C17.334 17.8183 17.1408 18.2846 16.797 18.6284C16.4532 18.9722 15.9869 19.1654 15.5007 19.1654H4.50065C4.01442 19.1654 3.54811 18.9722 3.20429 18.6284C2.86047 18.2846 2.66732 17.8183 2.66732 17.332V5.41536H0.833984V3.58203H19.1673V5.41536H17.334ZM4.50065 5.41536V17.332H15.5007V5.41536H4.50065ZM9.08398 7.2487H10.9173V9.08203H9.08398V7.2487ZM9.08398 9.9987H10.9173V11.832H9.08398V9.9987ZM9.08398 12.7487H10.9173V14.582H9.08398V12.7487ZM5.41732 0.832031H14.584V2.66536H5.41732V0.832031Z" fill="url(#paint0_linear_1061_49860)"/>
<defs>
<linearGradient id="paint0_linear_1061_49860" x1="0.833985" y1="19.1654" x2="20.6734" y2="17.3573" gradientUnits="userSpaceOnUse">
<stop stop-color="#4313A1"/>
<stop offset="1" stop-color="#8000FF"/>
</linearGradient>
</defs>
</svg>
