<svg width="48" height="48" viewBox="0 0 48 48" fill="none" xmlns="http://www.w3.org/2000/svg">
<rect width="48" height="48" rx="24" fill="#FBE9EF"/>
<path d="M23.6328 14.0742C23.5742 14.1133 23.4883 14.1992 23.4492 14.2578C23.3789 14.3633 23.375 14.4648 23.375 15.7578C23.375 17.0508 23.3789 17.1523 23.4492 17.2578C23.5703 17.4375 23.7188 17.5156 23.9609 17.5156C24.2031 17.5156 24.3516 17.4375 24.4727 17.2578C24.543 17.1523 24.5469 17.0508 24.5469 15.7578C24.5469 14.4648 24.543 14.3633 24.4727 14.2578C24.3516 14.0781 24.2031 14 23.9609 14C23.8164 14 23.7109 14.0234 23.6328 14.0742Z" fill="#E194AE"/>
<path d="M18.5005 15.4336C18.2505 15.4805 18.02 15.8906 18.0942 16.1602C18.1372 16.3086 19.2856 18.3125 19.4067 18.4453C19.5278 18.582 19.6801 18.6484 19.8676 18.6484C20.2036 18.6484 20.4458 18.3906 20.4458 18.043C20.4458 17.8633 20.3989 17.7656 19.7895 16.7148C19.1684 15.6367 19.1294 15.5781 18.9614 15.4922C18.7973 15.4102 18.6958 15.3984 18.5005 15.4336Z" fill="#E194AE"/>
<path d="M29.0391 15.4939C28.8711 15.5799 28.832 15.6385 28.2109 16.7166C27.6055 17.7674 27.5547 17.865 27.5547 18.0447C27.5547 18.6111 28.2148 18.8689 28.5938 18.4471C28.6406 18.4002 28.957 17.8767 29.2969 17.2869C29.8477 16.326 29.9141 16.1971 29.9141 16.0369C29.9102 15.5603 29.457 15.2791 29.0391 15.4939Z" fill="#E194AE"/>
<path d="M23.1211 18.7266C22.7031 18.793 22.1133 18.9609 21.7148 19.1328C20.9414 19.457 20.3711 19.8594 19.7578 20.4961C18.9961 21.2852 18.5273 22.1523 18.2461 23.293C18.168 23.6211 18.1641 23.7266 18.1523 27.0352L18.1367 30.4453H24H29.8633L29.8477 27.0352C29.8359 23.7266 29.832 23.6211 29.7539 23.293C29.457 22.0859 28.9922 21.2539 28.1445 20.4023C27.293 19.5508 26.4258 19.0703 25.2539 18.7969C24.8672 18.707 23.5312 18.6641 23.1211 18.7266Z" fill="#E194AE"/>
<path d="M14.5157 19.3915C14.1758 19.5985 14.1368 20.079 14.4376 20.3524C14.586 20.4891 16.586 21.6259 16.7344 21.661C17.0352 21.7313 17.3477 21.5438 17.4376 21.243C17.4961 21.0399 17.4336 20.7782 17.2891 20.6493C17.2305 20.5985 16.6993 20.2782 16.1094 19.9344C15.1172 19.3602 15.0196 19.3134 14.8399 19.3134C14.7149 19.3134 14.6016 19.3407 14.5157 19.3915Z" fill="#E194AE"/>
<path d="M31.832 19.9686C30.6328 20.6679 30.5898 20.703 30.5429 21.0116C30.5234 21.1327 30.539 21.2108 30.6093 21.3436C30.7226 21.5624 30.9023 21.6718 31.1523 21.6679C31.3203 21.664 31.4492 21.6015 32.4257 21.039C33.0234 20.6913 33.5624 20.3554 33.6288 20.289C33.7812 20.1288 33.8124 19.789 33.6913 19.5936C33.5742 19.4101 33.3906 19.3124 33.1601 19.3124C32.9804 19.3124 32.8867 19.3593 31.832 19.9686Z" fill="#E194AE"/>
<path d="M16.3828 32.6211C16.3828 33.7305 16.3906 33.7578 16.6406 33.9258C16.75 33.9961 16.9687 34 24 34C31.0312 34 31.25 33.9961 31.3594 33.9258C31.6094 33.7578 31.6172 33.7305 31.6172 32.6211V31.6172H24H16.3828V32.6211Z" fill="#E194AE"/>
</svg>
