<svg width="19" height="22" viewBox="0 0 19 22" fill="none" xmlns="http://www.w3.org/2000/svg">
<path d="M3.67813 1.03438C3.41094 1.12813 3.27969 1.23125 3.13438 1.44688L3.00781 1.64375L2.99375 10.3016L2.98438 18.9594L2.3375 18.9781C1.73281 18.9922 1.68125 19.0016 1.475 19.1234C1.15156 19.3109 0.992188 19.6016 0.992188 20C0.992188 20.3984 1.15156 20.6891 1.475 20.8766L1.69531 21.0078H3.99219H6.28906L6.5 20.8906C6.6125 20.825 6.77188 20.6797 6.85156 20.5719C6.97813 20.3844 6.99219 20.3328 6.99219 20C6.99219 19.6672 6.97813 19.6156 6.85156 19.4281C6.77188 19.3203 6.6125 19.175 6.5 19.1094C6.30781 19.0016 6.22813 18.9922 5.64688 18.9781L5 18.9594V15.4953V12.0313L11.1547 12.0219C16.7797 12.0078 17.3188 12.0031 17.4453 11.9281C17.8953 11.6844 18.1156 11.1969 17.9891 10.7281C17.9469 10.5828 17.5766 10.0531 16.6719 8.84375C15.9781 7.92031 15.3828 7.11875 15.3547 7.07188C15.3078 6.99688 15.4531 6.77656 16.5688 5.29531C17.2625 4.36719 17.8672 3.54688 17.9047 3.47188C18.1578 2.97969 17.9563 2.34219 17.4641 2.09375C17.2906 2 17.1641 2 11.1406 2H5V1.85938C5 1.77969 4.95781 1.63906 4.91094 1.54063C4.67188 1.07656 4.15156 0.865625 3.67813 1.03438Z" fill="#BF9BFD"/>
</svg>
