<svg width="40" height="40" viewBox="0 0 40 40" fill="none" xmlns="http://www.w3.org/2000/svg">
<circle cx="20" cy="20" r="20" fill="#93BFDE" fill-opacity="0.25"/>
<path d="M13.1199 12.1602C12.6488 12.3289 12.2867 12.6945 12.1215 13.1727C12.0582 13.359 12.0547 13.5207 12.0547 17.4758V21.582H16.8359H21.6172V20.3234C21.6172 18.9699 21.6488 18.5305 21.7613 18.1684C22.0109 17.3703 22.6789 16.7023 23.477 16.4527C23.8391 16.3402 24.2785 16.3086 25.6355 16.3086H26.8906V14.8391C26.8906 13.4715 26.8871 13.352 26.8238 13.1691C26.6586 12.6875 26.293 12.3219 25.8078 12.1566C25.6215 12.0934 25.4316 12.0898 19.4586 12.0934C13.5523 12.0934 13.2957 12.0969 13.1199 12.1602Z" fill="#7FB0D3"/>
<path d="M23.7371 17.4336C23.266 17.6023 22.9039 17.968 22.7387 18.4461C22.6859 18.5937 22.6719 18.7379 22.6719 19.0578V19.4727H25.8359H29V19.0578C29 18.7379 28.9859 18.5937 28.9332 18.4461C28.768 17.9609 28.4023 17.5953 27.9207 17.4301C27.7344 17.3668 27.6184 17.3633 25.8219 17.3668C24.0605 17.3668 23.9059 17.3738 23.7371 17.4336Z" fill="#7FB0D3"/>
<path d="M22.6719 22.6367V24.7461H25.8359H29V22.6367V20.5273H25.8359H22.6719V22.6367Z" fill="#7FB0D3"/>
<path d="M11.232 22.7035C11.0562 22.8195 11 22.9426 11 23.2203C11 23.8707 11.4359 24.4578 12.0828 24.6793C12.2691 24.7426 12.4414 24.7461 16.9484 24.7461H21.6172V23.6914V22.6367H16.4773C11.4992 22.6367 11.3305 22.6402 11.232 22.7035Z" fill="#7FB0D3"/>
<path d="M22.6719 26.2156C22.6719 26.5391 22.6859 26.6797 22.7387 26.8309C22.9039 27.3125 23.2695 27.6781 23.7547 27.8434C23.9375 27.9066 24.0676 27.9102 25.8359 27.9102C27.6148 27.9102 27.7344 27.9066 27.9207 27.8434C28.4023 27.6781 28.768 27.3125 28.9332 26.8273C28.9859 26.6797 29 26.5355 29 26.2156V25.8008H25.8359H22.6719V26.2156Z" fill="#7FB0D3"/>
</svg>
