<svg width="18" height="18" viewBox="0 0 18 18" fill="none" xmlns="http://www.w3.org/2000/svg">
<path d="M5.37998 0.0246087C5.29912 0.0562493 5.16904 0.182812 5.11279 0.288281C5.07061 0.36914 5.06357 1.13906 5.06357 5.25234V10.1215L4.82803 10.1918C4.69443 10.2305 3.70303 10.5187 2.62021 10.8281C1.5374 11.141 0.609277 11.4187 0.556543 11.4469C0.257715 11.6016 0.190918 12.048 0.433496 12.2871C0.496777 12.3469 0.915137 12.6 1.36514 12.8496L2.18428 13.3031L1.15068 14.3437C0.581152 14.9133 0.0889648 15.4195 0.0573242 15.4687C-0.0165039 15.5848 -0.0165039 15.9152 0.0573242 16.0312C0.141699 16.1578 1.75186 17.7785 1.91357 17.898C2.02607 17.9824 2.08584 18 2.24756 18C2.37412 18 2.47959 17.9789 2.53232 17.9437C2.58154 17.9121 3.08779 17.4199 3.66084 16.8469C4.70146 15.8133 4.70498 15.8098 4.75771 15.8941C4.78584 15.9398 5.00381 16.3266 5.23936 16.752C5.4749 17.1773 5.69639 17.5535 5.72803 17.5922C5.94248 17.8383 6.4417 17.782 6.59287 17.4937C6.62451 17.434 6.87412 16.6008 7.15186 15.6445L7.65459 13.9043L12.6608 13.8867C16.3628 13.8727 17.6847 13.8586 17.7374 13.827C17.7761 13.8059 17.8464 13.7461 17.8956 13.6934L17.9835 13.5984L17.994 8.51484C17.9976 5.71641 17.994 3.38906 17.9835 3.33984C17.9589 3.24141 14.8792 0.133593 14.7245 0.049218C14.6437 0.00703054 13.9546 -7.15256e-07 10.0312 0.00351491C7.50342 0.00351491 5.40811 0.0140618 5.37998 0.0246087ZM13.93 2.38711C13.9405 3.67031 13.944 3.72656 14.0144 3.81797C14.053 3.8707 14.1304 3.94805 14.1831 3.98672C14.2745 4.05703 14.3308 4.06055 15.614 4.07109L16.9464 4.08164V8.4375V12.7969H12.464C9.99951 12.7969 7.98154 12.7934 7.98154 12.7863C7.98154 12.7793 8.17139 12.1184 8.40342 11.3168C8.63545 10.5152 8.82529 9.80859 8.82529 9.7418C8.82529 9.48867 8.55107 9.21094 8.30146 9.21094C8.23818 9.21094 6.3749 9.73125 6.19912 9.79805C6.16396 9.81211 6.15342 8.92617 6.15342 5.43516V1.05469H10.0382H13.9194L13.93 2.38711ZM15.5929 2.42578L16.1554 2.98828H15.5823H15.0128V2.42578C15.0128 2.11641 15.0163 1.86328 15.0233 1.86328C15.0269 1.86328 15.2835 2.11641 15.5929 2.42578ZM7.4542 10.6207C7.4542 10.6594 5.98115 15.757 5.96357 15.7746C5.96006 15.7781 5.80537 15.5145 5.62256 15.184C5.26045 14.5266 5.14795 14.3965 4.9124 14.3613C4.63467 14.3191 4.56787 14.3719 3.38662 15.5496C2.77842 16.1508 2.27217 16.65 2.25811 16.657C2.24404 16.6605 2.02607 16.4602 1.77646 16.207L1.31943 15.75L2.43389 14.6355C3.04209 14.0203 3.5624 13.4824 3.5835 13.4367C3.65029 13.3102 3.63975 13.0289 3.5624 12.9023C3.49561 12.7863 3.37959 12.709 2.67646 12.3187L2.24404 12.0762L2.36006 12.041C2.42686 12.0234 3.57998 11.6895 4.92295 11.2992C6.26592 10.909 7.3874 10.5891 7.41201 10.5855C7.43311 10.5855 7.4542 10.5996 7.4542 10.6207Z" fill="url(#paint0_linear_1061_51160)"/>
<path d="M11.2865 4.74062C11.2197 4.77577 11.1283 4.86015 11.0861 4.92343C11.0087 5.03241 11.0052 5.07108 11.0052 5.71796V6.39999H10.3478C9.7888 6.39999 9.66927 6.41054 9.56731 6.46327C9.39153 6.55116 9.30716 6.68476 9.29309 6.89921C9.272 7.1453 9.35989 7.30351 9.5638 7.40897C9.70794 7.4828 9.76419 7.48983 10.3618 7.48983H11.0052V8.14374C11.0052 8.87499 11.0298 8.98046 11.2302 9.10351C11.4165 9.21952 11.5958 9.23007 11.7786 9.13515C12.0494 8.99452 12.074 8.91366 12.088 8.14726L12.1021 7.48983H12.7384C13.2939 7.48983 13.3958 7.4828 13.5013 7.42304C13.881 7.22265 13.881 6.65312 13.5013 6.46327C13.3958 6.41054 13.2763 6.39999 12.7384 6.39999H12.1021L12.088 5.73905C12.0775 5.02187 12.0529 4.93046 11.8419 4.77226C11.7083 4.6703 11.4411 4.65624 11.2865 4.74062Z" fill="url(#paint1_linear_1061_51160)"/>
<defs>
<linearGradient id="paint0_linear_1061_51160" x1="0.00195326" y1="0.00272413" x2="19.4735" y2="1.7769" gradientUnits="userSpaceOnUse">
<stop stop-color="#4313A1"/>
<stop offset="1" stop-color="#8000FF"/>
</linearGradient>
<linearGradient id="paint1_linear_1061_51160" x1="9.29004" y1="4.68551" x2="14.1557" y2="5.12722" gradientUnits="userSpaceOnUse">
<stop stop-color="#4313A1"/>
<stop offset="1" stop-color="#8000FF"/>
</linearGradient>
</defs>
</svg>
