<svg width="32" height="32" viewBox="0 0 32 32" fill="none" xmlns="http://www.w3.org/2000/svg">
<g clip-path="url(#clip0_2280_14079)">
<path d="M20.0359 0.0985947C16.6234 0.673595 13.7859 3.51735 13.1922 6.96735C13.0609 7.70485 13.0609 9.16735 13.1922 9.90485C13.7609 13.2049 16.3109 15.9049 19.5922 16.6799C21.5172 17.1361 23.5547 16.8986 25.3297 16.0049C27.7109 14.8049 29.4109 12.5174 29.8734 9.89235C30.0047 9.1611 30.0047 7.74235 29.8734 6.99235C29.2734 3.4986 26.4297 0.654846 22.9672 0.0923462C22.2359 -0.0264053 20.7547 -0.020155 20.0359 0.0985947ZM22.5297 1.3986C23.3234 1.5236 24.0609 1.7611 24.7797 2.12985C26.7234 3.12985 28.1047 4.9736 28.5359 7.15485C28.5859 7.3986 28.6234 7.96735 28.6234 8.4361C28.6234 8.90485 28.5859 9.4736 28.5359 9.71735C28.3547 10.6424 27.9672 11.5861 27.4609 12.3736C27.1172 12.8986 25.9922 14.0236 25.4672 14.3674C23.2922 15.7799 20.7297 15.9424 18.4359 14.8111C17.5547 14.3799 17.0422 14.0049 16.3984 13.3236C15.8172 12.7236 15.4859 12.2361 15.1234 11.4799C14.1734 9.50485 14.1859 7.32985 15.1547 5.3361C16.4984 2.56735 19.5297 0.948596 22.5297 1.3986Z" fill="#4313A1" stroke="#4313A1" stroke-width="0.2"/>
<path d="M18.5761 4.37483C18.3011 4.59358 18.2761 5.07483 18.5261 5.38108C18.6449 5.52483 18.6824 5.53108 19.7324 5.56233C20.9699 5.59983 21.1511 5.65608 21.5636 6.13733L21.7886 6.40608L20.2199 6.43733C18.6574 6.46858 18.6449 6.46858 18.5261 6.61858C18.2886 6.91233 18.2949 7.38108 18.5386 7.59983C18.6574 7.70608 18.8136 7.71858 20.2449 7.74983L21.8136 7.78108L21.5199 8.07483C21.1199 8.48108 20.8074 8.56233 19.7136 8.56233C18.7699 8.56233 18.5761 8.61233 18.4324 8.88108C18.3449 9.06233 18.3199 9.35608 18.3824 9.52483C18.4011 9.57483 19.1261 10.2873 19.9886 11.1061C22.3824 13.3748 22.3074 13.3123 22.5636 13.3123C23.1324 13.3123 23.4511 12.8123 23.1949 12.3248C23.1449 12.2311 22.5636 11.6498 21.9074 11.0311L20.7136 9.91233L21.0824 9.83733C22.0136 9.64983 22.8261 8.93108 23.1324 8.03733L23.2324 7.74983H23.7949C24.3324 7.74983 24.3636 7.74358 24.5386 7.56858C24.7449 7.35608 24.7824 7.04983 24.6261 6.74983C24.4886 6.48733 24.3574 6.43733 23.7636 6.43733H23.2386L23.0886 6.04358C23.0074 5.83108 22.9324 5.63733 22.9199 5.60608C22.9074 5.58108 23.2136 5.56233 23.5949 5.56233C24.3574 5.56233 24.4824 5.52483 24.6261 5.24983C24.7824 4.94983 24.7449 4.64358 24.5386 4.43108L24.3574 4.24983H21.5449C18.8136 4.24983 18.7324 4.25608 18.5761 4.37483Z" fill="#4313A1" stroke="#4313A1" stroke-width="0.2"/>
<path d="M13.0625 17.0938C11.8 17.2937 11.0875 17.55 9.01875 18.5375L7.53125 19.25L7.1125 18.8187C6.48125 18.1812 6.45 18.175 4.20625 18.2L2.375 18.2188L2.05625 18.3875C1.68125 18.5875 1.31875 18.9688 1.13125 19.3687C1 19.6562 1 19.6687 1 25.0938C1 30.5187 1 30.5312 1.13125 30.8188C1.33125 31.25 1.7 31.6188 2.125 31.825L2.5 32H4.2875C6.3375 32 6.45625 31.975 6.96875 31.5187C7.45625 31.0813 7.6125 30.725 7.64375 29.9875L7.66875 29.3812L7.99375 29.3187C10.6375 28.7875 11.2812 28.725 13.0375 28.8062C19.8125 29.1312 19.925 29.1375 20.6562 29.0625C22.4125 28.8937 23.9875 28.3312 25.4062 27.375C25.9062 27.0312 30.6625 23.1312 31.175 22.6375C31.3062 22.5125 31.5063 22.225 31.6125 22C31.7938 21.625 31.8125 21.5437 31.8125 20.9688C31.8125 20.3875 31.8 20.3125 31.6125 19.9312C31.2437 19.1812 30.6125 18.7 29.7938 18.55C29.325 18.4625 28.8188 18.5375 28.325 18.7688C28.1375 18.8625 27.0312 19.7125 25.7188 20.7812C23.1875 22.8438 23.1187 22.8938 22.5 23.2C21.6875 23.6125 21.225 23.6875 19.125 23.7625C18.0875 23.8 17.175 23.8125 17.0875 23.7937C16.9812 23.7688 16.8625 23.6312 16.7 23.35C16.575 23.125 16.4688 22.9062 16.4688 22.8562C16.4688 22.6312 16.7188 22.55 18.5375 22.2125C20.5438 21.8375 20.8438 21.7375 21.3125 21.3062C22.4375 20.2688 22.3188 18.4375 21.0688 17.5813C20.5625 17.2375 20.3313 17.2 17.8563 17.0938C15.1813 16.9812 13.75 16.9812 13.0625 17.0938ZM17.5375 18.425L20.0125 18.5312L20.2625 18.7C20.875 19.1 20.875 19.9437 20.2688 20.3938C20.1438 20.4875 19.5938 20.6187 18.1812 20.8875C16.6875 21.1687 16.2 21.2875 15.9625 21.4187C15.425 21.7063 15.15 22.2 15.15 22.8687C15.15 23.2312 15.1813 23.3438 15.4125 23.7937C15.7312 24.4313 16.0625 24.8187 16.4563 25.0125C16.7375 25.15 16.8 25.1562 17.9375 25.1375C21.0188 25.0938 21.95 24.9625 23.0562 24.45C23.7875 24.1062 23.8938 24.025 26.4688 21.9437C27.725 20.925 28.85 20.0437 28.9688 19.9875C29.25 19.8375 29.5562 19.8438 29.8875 20.0062C30.3875 20.25 30.6313 20.9437 30.3813 21.425C30.2812 21.6187 25.6562 25.5062 24.7688 26.1437C23.8438 26.8063 22.5688 27.35 21.3875 27.5938C20.5312 27.7625 19.6688 27.7687 16.2063 27.6C12.5625 27.425 11.1875 27.4 10.425 27.5062C9.925 27.5687 7.9625 27.9187 7.76875 27.975C7.6625 28.0062 7.65625 27.8063 7.65625 24.3625V20.7125L8.08125 20.5062C9.4125 19.8375 11.2563 18.9875 11.7188 18.825C12.6562 18.5 13.5875 18.3313 14.5625 18.325C14.8375 18.325 16.175 18.3687 17.5375 18.425ZM6.03125 19.6562C6.35 19.9375 6.34375 19.8375 6.34375 25.0938C6.34375 30.35 6.35 30.25 6.03125 30.5312C5.90625 30.65 5.7875 30.6562 4.41875 30.675C2.84375 30.6938 2.6875 30.675 2.46875 30.3875C2.34375 30.2375 2.34375 30.1062 2.34375 25.1125C2.34375 21.6125 2.3625 19.95 2.4125 19.8687C2.44375 19.8 2.56875 19.6875 2.675 19.6187C2.8625 19.5062 2.975 19.5 4.38125 19.5125C5.79375 19.5312 5.9 19.5375 6.03125 19.6562Z" fill="#4313A1" stroke="#4313A1" stroke-width="0.2"/>
</g>
<defs>
<clipPath id="clip0_2280_14079">
<rect width="32" height="32" fill="white"/>
</clipPath>
</defs>
</svg>
