<svg width="18" height="18" viewBox="0 0 18 18" fill="none" xmlns="http://www.w3.org/2000/svg">
<path d="M8.52569 0.0492191C8.08975 0.193359 8.17412 0.112501 4.19092 4.08867C2.09561 6.18047 0.330763 7.97344 0.263966 8.07188C-0.00322123 8.46914 -0.080565 9.07383 0.0706069 9.53086C0.299123 10.2094 0.840529 10.6102 1.61748 10.6734L1.89522 10.698L1.90576 13.5668C1.91631 16.3793 1.91983 16.4391 1.99014 16.6289C2.25381 17.325 2.69326 17.7539 3.33662 17.9438C3.50186 17.993 3.76553 18 5.21748 18C6.8417 18 6.91201 17.9965 7.02451 17.9297C7.08779 17.891 7.16865 17.8102 7.20733 17.7469C7.27412 17.6344 7.27764 17.5641 7.27764 15.3984C7.27764 13.8762 7.2917 13.1203 7.31631 13.0254C7.37608 12.8145 7.54131 12.6 7.72764 12.491L7.89287 12.3926H9.00381H10.1147L10.287 12.498C10.4804 12.6176 10.6632 12.8883 10.7019 13.1027C10.7124 13.1766 10.723 14.2207 10.723 15.4266C10.723 17.7996 10.7159 17.7082 10.9163 17.8945L11.0112 17.9824L12.7022 17.993C13.8343 18 14.4565 17.9895 14.5796 17.9648C15.0647 17.8629 15.6272 17.434 15.8487 16.998C16.0948 16.5059 16.0808 16.7063 16.0948 13.5492L16.1054 10.6945L16.3937 10.6699C17.1003 10.6102 17.5644 10.3008 17.8562 9.70312C17.9792 9.44297 17.9827 9.43242 17.9827 9C17.9827 8.56406 17.9827 8.55703 17.8491 8.2793C17.7155 7.99805 17.712 7.99453 13.8589 4.14141C10.0022 0.284765 10.0022 0.284765 9.721 0.151173C9.45381 0.0246105 9.41865 0.0175781 9.05303 0.0105476C8.80342 0.00351524 8.61709 0.0175781 8.52569 0.0492191Z" fill="#FFDBA0"/>
</svg>
