<svg width="18" height="19" viewBox="0 0 18 19" fill="none" xmlns="http://www.w3.org/2000/svg">
<path d="M8.22905 0.371387C7.2939 0.532227 6.41499 0.989726 5.70484 1.69027C4.71694 2.65889 4.20366 3.98492 4.26694 5.38959C4.38648 7.9809 6.45718 10.0003 9.00249 10.0039C10.8271 10.0039 12.4689 8.97096 13.2845 7.30537C13.615 6.6227 13.7591 5.98291 13.7591 5.16084C13.7591 4.34234 13.6115 3.68111 13.274 2.99844C12.9505 2.33721 12.3775 1.64381 11.822 1.23635C11.2349 0.807441 10.4791 0.482187 9.80054 0.371387C9.4103 0.307051 8.5982 0.307051 8.22905 0.371387ZM9.28023 1.63309C9.45601 1.76533 9.50523 1.90473 9.5228 2.32291L9.53687 2.70535L9.68101 2.77326C10.0607 2.94482 10.4087 3.35586 10.4087 3.63465C10.4087 3.93131 10.2048 4.14219 9.92007 4.14219C9.72671 4.14219 9.65288 4.0993 9.44195 3.8634C9.27319 3.67396 9.25562 3.66682 9.05874 3.64895C8.6896 3.61678 8.47515 3.81336 8.47515 4.17793C8.47515 4.53535 8.65093 4.69262 9.10796 4.74623C9.59663 4.80342 9.95171 5 10.233 5.361C10.4615 5.65766 10.5318 5.88283 10.5318 6.34033C10.5318 6.71562 10.5248 6.74422 10.4123 6.98369C10.2681 7.28393 9.96577 7.60203 9.71265 7.71998L9.53687 7.80219L9.5228 8.18105C9.50523 8.58852 9.46304 8.71004 9.29077 8.84229C9.22398 8.89232 9.1396 8.91377 9.00249 8.91377C8.86538 8.91377 8.78101 8.89232 8.71421 8.84229C8.54194 8.71004 8.49976 8.58852 8.48218 8.17748L8.46812 7.79504L8.32398 7.72713C7.94429 7.55557 7.59624 7.14453 7.59624 6.86574C7.59624 6.56908 7.80015 6.3582 8.08491 6.3582C8.27827 6.3582 8.3521 6.40109 8.56304 6.63699C8.73179 6.82643 8.74937 6.83357 8.94624 6.85145C9.31538 6.88361 9.52984 6.68703 9.52984 6.32246C9.52984 5.96504 9.35405 5.80777 8.89702 5.75416C8.40835 5.69697 8.05327 5.50039 7.77202 5.13939C7.54351 4.84273 7.47319 4.61756 7.47319 4.16006C7.47319 3.78477 7.48023 3.75617 7.59273 3.5167C7.73687 3.21646 8.04273 2.89836 8.29937 2.77684L8.47515 2.69463V2.40869C8.47866 1.9226 8.55601 1.72244 8.79507 1.59377C8.93921 1.51514 9.15015 1.53301 9.28023 1.63309Z" fill="url(#paint0_linear_1061_51893)"/>
<path d="M0.611719 4.76352C0.383203 4.87074 0.189844 5.06732 0.084375 5.29965L0 5.48193V8.59508C0 11.6046 0.00351562 11.7154 0.0703125 11.9906C0.154687 12.3266 0.305859 12.6625 0.481641 12.9127C0.551953 13.0128 1.42383 13.9242 2.41523 14.9357L4.21875 16.78V17.5271C4.21875 18.3527 4.2293 18.3992 4.45078 18.5493C4.5457 18.6136 4.64766 18.6172 6.32812 18.6172C8.00859 18.6172 8.11055 18.6136 8.20547 18.5493C8.2582 18.5135 8.33555 18.4349 8.3707 18.3813C8.43398 18.2812 8.4375 18.174 8.4375 16.0795C8.4375 13.6919 8.43047 13.6204 8.24062 13.1737C8.18789 13.0521 8.08945 12.8627 8.01914 12.7555C7.87148 12.516 5.53359 10.1141 5.30859 9.96758C4.73555 9.59586 3.94102 9.89967 3.72305 10.568C3.65977 10.7611 3.69844 11.2043 3.79688 11.3973C3.84961 11.5009 4.23984 11.9298 4.92891 12.6375C5.76211 13.4882 5.99062 13.7384 6.0082 13.8349C6.08555 14.1959 5.77617 14.5211 5.42109 14.4532C5.30859 14.4318 5.09062 14.228 3.76875 12.8877C2.93203 12.0371 2.21836 11.2936 2.18672 11.2364C2.13398 11.1399 2.12695 10.8611 2.10938 8.26982L2.0918 5.41045L2.01094 5.26033C1.81406 4.88146 1.47656 4.67773 1.05469 4.67773C0.850781 4.67773 0.748828 4.69918 0.611719 4.76352Z" fill="url(#paint1_linear_1061_51893)"/>
<path d="M16.5023 4.76352C16.2914 4.86359 16.098 5.04945 15.9891 5.26033L15.9082 5.41045L15.8906 8.26982C15.873 10.8611 15.866 11.1399 15.8133 11.2364C15.7816 11.2936 15.068 12.0371 14.2312 12.8877C12.9094 14.228 12.6914 14.4318 12.5789 14.4532C12.2238 14.5211 11.9145 14.1959 11.9918 13.8349C12.0094 13.7384 12.2379 13.4882 13.0711 12.6375C13.7602 11.9298 14.1504 11.5009 14.2031 11.3973C14.3016 11.2043 14.3402 10.7611 14.277 10.568C14.059 9.89967 13.2645 9.59586 12.6914 9.96758C12.4664 10.1141 10.1285 12.516 9.98086 12.7555C9.91055 12.8627 9.81211 13.0521 9.75937 13.1737C9.56953 13.6204 9.5625 13.6919 9.5625 16.0795C9.5625 18.174 9.56602 18.2812 9.6293 18.3813C9.66445 18.4349 9.7418 18.5135 9.79453 18.5493C9.88945 18.6136 9.99141 18.6172 11.6719 18.6172C13.3523 18.6172 13.4543 18.6136 13.5492 18.5493C13.7707 18.3992 13.7812 18.3527 13.7812 17.5271V16.78L15.5848 14.9357C16.5762 13.9242 17.448 13.0128 17.5184 12.9127C17.6941 12.6625 17.8453 12.3266 17.9297 11.9906C17.9965 11.7154 18 11.6046 18 8.59508V5.48193L17.9156 5.29965C17.7328 4.89934 17.3848 4.67773 16.9453 4.67773C16.7414 4.67773 16.6395 4.69918 16.5023 4.76352Z" fill="url(#paint2_linear_1061_51893)"/>
<defs>
<linearGradient id="paint0_linear_1061_51893" x1="4.26172" y1="0.323134" x2="14.5425" y2="1.24233" gradientUnits="userSpaceOnUse">
<stop stop-color="#4313A1"/>
<stop offset="1" stop-color="#8000FF"/>
</linearGradient>
<linearGradient id="paint1_linear_1061_51893" x1="6.28643e-08" y1="4.67773" x2="9.17853" y2="5.18406" gradientUnits="userSpaceOnUse">
<stop stop-color="#4313A1"/>
<stop offset="1" stop-color="#8000FF"/>
</linearGradient>
<linearGradient id="paint2_linear_1061_51893" x1="9.5625" y1="4.67773" x2="18.741" y2="5.18406" gradientUnits="userSpaceOnUse">
<stop stop-color="#4313A1"/>
<stop offset="1" stop-color="#8000FF"/>
</linearGradient>
</defs>
</svg>
