<svg width="20" height="20" viewBox="0 0 20 20" fill="none" xmlns="http://www.w3.org/2000/svg">
<path d="M10.0077 10.1182C9.01982 11.0839 8.03818 12.0557 7.05107 13.0221C6.27842 13.7788 5.50889 14.8151 4.42217 15.1132C2.95186 15.5178 1.30381 14.671 0.924903 13.1651C0.81013 12.7137 0.814302 12.2402 0.937012 11.7909C1.2335 10.7261 2.14795 9.9366 2.84287 9.12606C3.67607 8.15418 4.38232 7.7659 5.21045 6.78934C5.22412 6.77294 5.95889 7.48465 5.97959 7.47958L10.0077 10.1182Z" fill="url(#paint0_linear_1061_49994)"/>
<path d="M18.6618 11.9609C19.1696 14.6172 15.9106 16.3285 13.9649 14.4496C12.1243 12.6719 9.59848 10.1695 9.53833 10.1098C5.05317 5.92109 2.99301 9.09023 3.02778 8.90741C3.052 8.77851 3.13989 8.65702 3.21176 8.55116C3.33754 8.36562 3.47856 8.19023 3.62192 8.01796C4.00434 7.55741 4.41254 7.11952 4.82426 6.68398C5.2253 6.2608 5.63207 5.84413 6.04457 5.43398C6.3352 5.14257 6.627 4.84804 6.95864 4.6039C7.27273 4.37644 7.61226 4.18636 7.97036 4.03749C8.56782 3.77792 9.21487 3.65232 9.86606 3.66952C10.4273 3.6923 10.9795 3.81795 11.4954 4.04023C11.9564 4.23831 12.3911 4.49286 12.7895 4.79804C13.107 5.03883 13.4048 5.30451 13.6801 5.59257C13.824 5.74189 13.9602 5.89834 14.0883 6.06132C14.1145 6.09491 14.1411 6.12773 14.1688 6.16015L18.0411 10.6766C18.3315 11.0099 18.5359 11.4093 18.6364 11.8398C18.6454 11.8801 18.654 11.9207 18.6618 11.9609Z" fill="url(#paint1_linear_1061_49994)"/>
<defs>
<linearGradient id="paint0_linear_1061_49994" x1="-3.45322" y1="23.5913" x2="16.3878" y2="-4.84074" gradientUnits="userSpaceOnUse">
<stop offset="0.27" stop-color="#3D169A"/>
<stop offset="0.31" stop-color="#3D169A"/>
<stop offset="0.4" stop-color="#501797"/>
<stop offset="0.45" stop-color="#5A1C8E"/>
<stop offset="0.6" stop-color="#7A1B20"/>
</linearGradient>
<linearGradient id="paint1_linear_1061_49994" x1="5.46411" y1="4.04882" x2="17.4977" y2="17.3852" gradientUnits="userSpaceOnUse">
<stop stop-color="white"/>
<stop offset="0.13" stop-color="#B43F40"/>
<stop offset="0.2" stop-color="#9E3653"/>
<stop offset="0.24" stop-color="#8C3062"/>
<stop offset="0.32" stop-color="#802A6D"/>
<stop offset="0.42" stop-color="#672183"/>
<stop offset="0.54" stop-color="#5B1D8D"/>
<stop offset="0.68" stop-color="#5A1C8E"/>
<stop offset="0.81" stop-color="#501797"/>
</linearGradient>
</defs>
</svg>
