<svg width="205" height="132" viewBox="0 0 205 132" fill="none" xmlns="http://www.w3.org/2000/svg">
<path d="M17.3017 131C17.3017 131 -8.77457 105.772 9.49423 74.6791C88.4333 -59.6711 213.199 17.0213 178.475 74.6791C164.158 98.4543 197.193 103.548 183.678 131L17.3017 131Z" fill="white"/>
<path d="M130.24 130.148H81.2588V94.7159H130.24V130.148Z" fill="#D4BCFF"/>
<path d="M107.867 130.148H65.168V94.7159H107.867V130.148Z" fill="#ECE3FC"/>
<path d="M65.1659 94.7148L57.5859 87.1349H76.7949L83.9298 94.7148H65.1659Z" fill="#ECE3FC"/>
<path d="M107.867 94.7148L116.587 87.1349H140.509L130.239 94.7148H107.867Z" fill="#DDCAFF"/>
<path d="M107.867 94.7164C107.867 94.8122 98.3075 94.8906 86.5184 94.8906C74.7245 94.8906 65.168 94.8122 65.168 94.7164C65.168 94.6198 74.7245 94.5414 86.5184 94.5414C98.3075 94.5414 107.867 94.6198 107.867 94.7164Z" fill="#D4BCFF"/>
<path d="M204.766 131.012H0.233997C0.10523 131.012 0 130.864 0 130.682V130.564C0 130.384 0.10523 130.236 0.233997 130.236H204.766C204.895 130.236 205 130.384 205 130.564V130.682C205 130.864 204.895 131.012 204.766 131.012Z" fill="#D4CCFF"/>
<rect x="78.0518" y="37.9453" width="42.382" height="42.382" rx="6" fill="#FFF0EB"/>
<path d="M70.2389 57.388C70.1801 57.4445 70.1191 57.4996 70.0572 57.5533C70.036 57.5716 70.0153 57.5899 69.9939 57.6073C69.9456 57.6482 69.8971 57.6882 69.8483 57.7273C67.4917 59.5879 64.0646 59.2865 62.0732 56.997C60.1736 54.8129 60.2474 51.5857 62.142 49.4915C62.2932 49.3245 62.4555 49.1644 62.6298 49.0131C62.6922 48.9587 62.7558 48.9061 62.8199 48.8549C62.8822 48.805 62.9455 48.7569 63.0094 48.7101C63.2051 48.567 63.4078 48.4386 63.6158 48.3239C63.9245 48.1535 64.2454 48.0145 64.5739 47.9063C65.5922 47.5719 66.6818 47.5364 67.7097 47.7911C68.7999 48.0609 69.8206 48.6576 70.6136 49.5698C72.6106 51.866 72.4271 55.3148 70.2389 57.388Z" fill="#FFF0EB"/>
<path d="M65.3521 48.5858C64.577 48.7526 63.8324 49.1114 63.193 49.6673C61.1707 51.4259 60.9563 54.5021 62.715 56.5244C64.4737 58.5467 67.55 58.761 69.5719 57.0025C71.5942 55.2434 71.8087 52.1677 70.0501 50.1454C68.8474 48.7627 67.0284 48.225 65.3521 48.5858ZM67.4733 58.3612C65.6987 58.7432 63.7739 58.1746 62.5008 56.7104C60.6394 54.5703 60.8664 51.3146 63.0067 49.4532C65.147 47.5918 68.4028 47.8188 70.2641 49.9589C72.1256 52.0995 71.8986 55.3552 69.7584 57.2166C69.0819 57.8046 68.2936 58.1846 67.4733 58.3612Z" fill="#FCB497"/>
<path d="M68.8944 54.4951C68.779 54.4901 68.663 54.4855 68.5476 54.4804C68.2697 54.4691 67.9921 54.4569 67.7142 54.4456C67.3792 54.4318 67.0447 54.4176 66.7096 54.4038C66.419 54.3915 66.1284 54.3792 65.8382 54.3674C65.6971 54.3614 65.5561 54.3529 65.4144 54.3497C65.4124 54.3495 65.4105 54.3494 65.4085 54.3492C65.4829 54.3886 65.5573 54.428 65.6311 54.4679C65.5947 54.4187 65.558 54.3691 65.5216 54.32C65.4859 54.48 65.4504 54.6391 65.4147 54.7991C65.5304 54.7135 65.6467 54.6275 65.7625 54.5419C65.8817 54.4537 66.0049 54.3682 66.1207 54.2753C66.3888 54.0602 66.6132 53.7847 66.7476 53.4812C66.8771 53.1886 66.9406 52.8729 66.9125 52.5744C66.8835 52.2671 66.773 51.9744 66.5808 51.7446C66.3908 51.5179 66.1348 51.3416 65.8362 51.2536C65.5436 51.1676 65.2155 51.1495 64.895 51.2201C64.5927 51.2869 64.3028 51.4165 64.047 51.6057C63.7905 51.7954 63.5335 51.9855 63.277 52.1752C63.2686 52.1814 63.2609 52.1871 63.2525 52.1933C63.1762 52.2498 63.1171 52.3383 63.0973 52.4249C63.0787 52.5083 63.0943 52.6104 63.1457 52.6724C63.1986 52.7364 63.2749 52.7872 63.3682 52.791C63.4611 52.7943 63.5541 52.7703 63.6352 52.7103C63.8863 52.5246 64.138 52.3384 64.3891 52.1527C64.4595 52.1007 64.531 52.0502 64.6065 52.0063C64.578 52.0226 64.5488 52.0394 64.5203 52.0557C64.642 51.9857 64.7703 51.9308 64.9026 51.8913C64.8722 51.9002 64.8419 51.909 64.8125 51.918C64.9424 51.8803 65.0738 51.8583 65.2047 51.8519C65.1745 51.8534 65.1449 51.8545 65.1146 51.8561C65.2418 51.8509 65.3661 51.8605 65.4867 51.8849C65.4582 51.8788 65.43 51.8732 65.4015 51.8671C65.5252 51.8933 65.6425 51.9345 65.7514 51.9907C65.726 51.9776 65.7005 51.9644 65.6761 51.9513C65.7866 52.0095 65.8864 52.0821 65.9733 52.1683C65.9529 52.1482 65.9321 52.1275 65.9116 52.1074C65.9964 52.192 66.0679 52.2887 66.124 52.3944C66.1108 52.369 66.0971 52.3431 66.0839 52.3177C66.1409 52.4259 66.1811 52.5426 66.2045 52.6653C66.1994 52.6371 66.1942 52.6089 66.1888 52.5817C66.2107 52.7023 66.2159 52.8265 66.2047 52.9523C66.2072 52.9233 66.2101 52.8947 66.2126 52.8657C66.2007 52.9881 66.1736 53.1098 66.1314 53.2298C66.1417 53.2013 66.1514 53.1733 66.1618 53.1449C66.1173 53.2682 66.0579 53.3873 65.9838 53.5005C66.0012 53.4741 66.0185 53.4477 66.0357 53.4222C65.9592 53.5371 65.8692 53.6437 65.7666 53.7395C65.7906 53.717 65.8151 53.6941 65.8391 53.6716C65.7417 53.762 65.6331 53.8384 65.5263 53.9173C65.3945 54.0148 65.2633 54.1119 65.1315 54.2093C65.0987 54.2336 65.0653 54.2583 65.0325 54.2826C64.8714 54.4017 64.8219 54.6215 64.9256 54.7616C64.9612 54.8097 64.9962 54.8582 65.0323 54.9059C65.0886 54.9795 65.1762 55.0243 65.2764 55.0286C65.3371 55.0309 65.3983 55.0337 65.459 55.0359C65.7245 55.0468 65.9904 55.0581 66.2559 55.0689C66.6082 55.0836 66.9606 55.0982 67.3133 55.1133C67.6305 55.1267 67.9483 55.1397 68.2656 55.153C68.4229 55.1599 68.58 55.1677 68.7372 55.173C68.7392 55.1732 68.7417 55.1729 68.7437 55.173C68.835 55.1767 68.9313 55.151 69.0107 55.0924C69.084 55.0381 69.1504 54.9458 69.1659 54.8607C69.1815 54.7732 69.1724 54.6799 69.1175 54.6133C69.0642 54.5487 68.9877 54.4989 68.8944 54.4951Z" fill="#FCB497"/>
<path d="M63.6483 52.7149C63.7532 52.6373 63.8582 52.5596 63.9631 52.482C64.2153 52.2955 64.4676 52.109 64.7198 51.9224C65.0239 51.6975 65.3274 51.4731 65.6315 51.2482C65.895 51.0533 66.1586 50.8584 66.4221 50.6635C66.5503 50.5687 66.6796 50.4754 66.8061 50.3795C66.8079 50.3782 66.8097 50.3768 66.8115 50.3755C66.8878 50.3191 66.9469 50.2306 66.9667 50.1439C66.9853 50.0606 66.9697 49.9585 66.9183 49.8966C66.8654 49.8325 66.789 49.7818 66.6958 49.778C66.6029 49.7747 66.5099 49.7986 66.4288 49.8586C66.3239 49.9362 66.219 50.0138 66.114 50.0915C65.8618 50.278 65.6096 50.4645 65.3574 50.651C65.0533 50.8759 64.7498 51.1004 64.4457 51.3253C64.1821 51.5202 63.9186 51.7151 63.655 51.91C63.5268 52.0048 63.3975 52.0981 63.271 52.194C63.2692 52.1953 63.2675 52.1966 63.2657 52.198C63.1893 52.2544 63.1303 52.3429 63.1105 52.4295C63.0919 52.5129 63.1074 52.6149 63.1588 52.6769C63.2118 52.7409 63.2881 52.7917 63.3813 52.7955C63.4742 52.7988 63.5678 52.7744 63.6483 52.7149Z" fill="#FCB497"/>
<path d="M64.4627 53.8124C64.5676 53.7348 64.6726 53.6572 64.7775 53.5796C65.0297 53.3931 65.282 53.2065 65.5342 53.02C65.8383 52.7951 66.1418 52.5707 66.4459 52.3458C66.7094 52.1508 66.973 51.9559 67.2365 51.761C67.3647 51.6662 67.4941 51.5729 67.6205 51.477C67.6223 51.4757 67.6241 51.4744 67.6259 51.4731C67.7022 51.4166 67.7613 51.3281 67.7811 51.2415C67.7997 51.1582 67.7842 51.0561 67.7328 50.9941C67.6798 50.9301 67.6035 50.8794 67.5103 50.8756C67.4174 50.8723 67.3244 50.8963 67.2433 50.9562C67.1384 51.0338 67.0335 51.1115 66.9285 51.1891C66.6763 51.3756 66.4241 51.5621 66.1718 51.7487C65.8677 51.9736 65.5642 52.198 65.2601 52.4229C64.9966 52.6178 64.733 52.8128 64.4695 53.0077C64.3413 53.1025 64.2119 53.1957 64.0855 53.2917C64.0837 53.293 64.0819 53.2943 64.0801 53.2956C64.0038 53.3521 63.9447 53.4405 63.9249 53.5272C63.9063 53.6105 63.9219 53.7126 63.9733 53.7745C64.0262 53.8386 64.1025 53.8893 64.1958 53.8931C64.2882 53.8959 64.3822 53.872 64.4627 53.8124Z" fill="#FCB497"/>
<path d="M105.292 35.7116C105.222 35.699 105.152 35.684 105.082 35.6678C105.059 35.6623 105.035 35.657 105.012 35.6508C104.958 35.6376 104.905 35.6238 104.853 35.6094C102.336 34.8973 100.798 32.3256 101.396 29.7512C101.967 27.2955 104.281 25.699 106.726 25.9658C106.921 25.9871 107.117 26.0198 107.313 26.0655C107.383 26.0818 107.453 26.0998 107.522 26.1188C107.589 26.1372 107.655 26.1573 107.721 26.1785C107.922 26.2435 108.116 26.3209 108.303 26.409C108.581 26.5398 108.843 26.6951 109.087 26.8716C109.843 27.4192 110.425 28.1697 110.77 29.0249C111.137 29.9319 111.237 30.9568 110.999 31.9822C110.399 34.5639 107.872 36.1963 105.292 35.7116Z" fill="#FFF0EB"/>
<path d="M109.006 27.7712C108.492 27.3096 107.859 26.9676 107.14 26.8005C104.866 26.2722 102.587 27.6923 102.058 29.9661C101.53 32.2398 102.95 34.5196 105.224 35.0476C107.498 35.5757 109.777 34.1559 110.305 31.8822C110.667 30.3274 110.117 28.7695 109.006 27.7712ZM103.193 34.2612C102.017 33.2044 101.435 31.5561 101.818 29.91C102.377 27.5036 104.789 26.0006 107.196 26.5597C109.602 27.1188 111.105 29.5316 110.546 31.9379C109.987 34.3446 107.574 35.8476 105.168 35.2886C104.408 35.1117 103.737 34.7497 103.193 34.2612Z" fill="#FCB497"/>
<path d="M106.647 33.2889C106.592 33.2049 106.536 33.1207 106.481 33.0367C106.347 32.8349 106.213 32.6328 106.079 32.431C105.918 32.1876 105.757 31.9443 105.596 31.7009C105.456 31.4896 105.316 31.2784 105.176 31.0676C105.108 30.965 105.042 30.8612 104.972 30.7596C104.971 30.7581 104.971 30.7566 104.97 30.7552C104.98 30.8278 104.99 30.9004 105 30.9728C105.016 30.922 105.032 30.8708 105.048 30.82C104.917 30.8766 104.787 30.9328 104.655 30.9894C104.775 31.0273 104.895 31.0654 105.015 31.1033C105.138 31.1424 105.261 31.1856 105.386 31.2199C105.674 31.2991 105.983 31.3166 106.266 31.2565C106.539 31.1984 106.794 31.0818 106.99 30.9096C107.192 30.7321 107.342 30.5046 107.406 30.2516C107.469 30.0018 107.462 29.7312 107.372 29.4756C107.283 29.2252 107.128 28.9845 106.915 28.7945C106.713 28.6153 106.474 28.477 106.21 28.3932C105.945 28.3092 105.679 28.225 105.414 28.1409C105.406 28.1382 105.398 28.1356 105.389 28.1329C105.31 28.1079 105.218 28.1114 105.146 28.1417C105.078 28.1712 105.014 28.2343 104.997 28.3022C104.979 28.3723 104.982 28.4521 105.027 28.5198C105.072 28.587 105.136 28.6404 105.22 28.667C105.479 28.7492 105.739 28.8317 105.998 28.914C106.071 28.937 106.143 28.9617 106.213 28.9926C106.187 28.9808 106.16 28.9688 106.134 28.957C106.245 29.0071 106.35 29.0695 106.445 29.1427C106.423 29.1258 106.402 29.1089 106.38 29.0927C106.473 29.1651 106.556 29.2466 106.627 29.3357C106.611 29.3152 106.595 29.2948 106.578 29.2743C106.647 29.3613 106.704 29.454 106.748 29.5515C106.738 29.5283 106.727 29.5056 106.717 29.4823C106.762 29.5829 106.793 29.6867 106.809 29.7923C106.805 29.7676 106.801 29.7429 106.798 29.719C106.813 29.8267 106.813 29.9342 106.797 30.0395C106.8 30.0148 106.804 29.9896 106.808 29.965C106.792 30.0679 106.76 30.1678 106.714 30.2614C106.725 30.239 106.737 30.2162 106.748 30.1938C106.701 30.2894 106.639 30.3773 106.564 30.4565C106.581 30.4385 106.599 30.4204 106.615 30.4027C106.541 30.4798 106.456 30.5469 106.362 30.6033C106.384 30.5902 106.405 30.5777 106.427 30.5646C106.335 30.6188 106.235 30.6618 106.129 30.6933C106.154 30.686 106.179 30.6786 106.204 30.6714C106.094 30.703 105.98 30.7219 105.862 30.7275C105.89 30.7262 105.917 30.725 105.944 30.724C105.824 30.7288 105.703 30.7198 105.583 30.6964C105.611 30.7018 105.64 30.7074 105.668 30.7128C105.554 30.6903 105.445 30.6526 105.334 30.6176C105.198 30.5745 105.063 30.5315 104.927 30.4883C104.893 30.4775 104.858 30.4666 104.825 30.4558C104.658 30.4031 104.478 30.4804 104.432 30.6252C104.416 30.6748 104.4 30.7243 104.385 30.7742C104.362 30.8514 104.375 30.9361 104.423 31.009C104.452 31.053 104.482 31.0976 104.511 31.1416C104.639 31.3344 104.767 31.5278 104.895 31.7206C105.064 31.9767 105.234 32.2327 105.404 32.4892C105.556 32.7199 105.709 32.9507 105.862 33.1813C105.938 33.2958 106.012 33.4106 106.089 33.5243C106.09 33.5257 106.091 33.5274 106.092 33.5288C106.136 33.5951 106.204 33.65 106.285 33.676C106.361 33.7 106.46 33.6997 106.528 33.6672C106.598 33.6335 106.659 33.5794 106.678 33.5067C106.696 33.4361 106.692 33.3566 106.647 33.2889Z" fill="#FCB497"/>
<path d="M105.221 28.6637C105.329 28.6981 105.437 28.7324 105.546 28.7668C105.806 28.8495 106.067 28.9321 106.327 29.0148C106.641 29.1144 106.954 29.2139 107.268 29.3135C107.541 29.3999 107.813 29.4862 108.085 29.5726C108.217 29.6146 108.349 29.6582 108.481 29.6984C108.483 29.699 108.485 29.6996 108.487 29.7002C108.566 29.7252 108.658 29.7217 108.73 29.6914C108.798 29.6619 108.862 29.5988 108.879 29.5309C108.897 29.4608 108.894 29.3811 108.849 29.3133C108.804 29.2461 108.74 29.1928 108.656 29.1662C108.548 29.1318 108.439 29.0974 108.331 29.063C108.071 28.9804 107.81 28.8977 107.55 28.8151C107.236 28.7155 106.922 28.616 106.608 28.5164C106.336 28.43 106.064 28.3436 105.792 28.2573C105.66 28.2153 105.528 28.1717 105.395 28.1315C105.394 28.1309 105.392 28.1303 105.39 28.1297C105.311 28.1047 105.218 28.1082 105.147 28.1385C105.079 28.1679 105.015 28.2311 104.997 28.299C104.979 28.369 104.982 28.4488 105.027 28.5165C105.073 28.5837 105.138 28.6373 105.221 28.6637Z" fill="#FCB497"/>
<path d="M104.857 29.8003C104.966 29.8347 105.074 29.8691 105.183 29.9035C105.443 29.9861 105.703 30.0688 105.964 30.1514C106.278 30.2511 106.591 30.3505 106.905 30.4502C107.177 30.5365 107.449 30.6229 107.722 30.7092C107.854 30.7513 107.986 30.7949 108.118 30.8351C108.12 30.8357 108.122 30.8362 108.124 30.8368C108.202 30.8618 108.295 30.8583 108.366 30.828C108.435 30.7986 108.499 30.7355 108.516 30.6676C108.534 30.5975 108.531 30.5178 108.486 30.45C108.441 30.3828 108.377 30.3295 108.293 30.3029C108.184 30.2685 108.076 30.2342 107.968 30.1998C107.707 30.1171 107.447 30.0345 107.186 29.9518C106.872 29.8522 106.559 29.7527 106.245 29.6531C105.973 29.5667 105.701 29.4804 105.429 29.394C105.296 29.352 105.164 29.3084 105.032 29.2682C105.03 29.2676 105.028 29.267 105.027 29.2664C104.948 29.2414 104.855 29.2449 104.784 29.2752C104.716 29.3047 104.652 29.3678 104.634 29.4357C104.616 29.5057 104.619 29.5855 104.664 29.6532C104.709 29.7199 104.774 29.7739 104.857 29.8003Z" fill="#FCB497"/>
<path d="M81.2835 32.8554C81.1625 32.9096 81.0388 32.9603 80.9146 33.0086C80.8721 33.0251 80.8303 33.0417 80.788 33.0566C80.6915 33.0927 80.5953 33.1274 80.4992 33.1604C75.8692 34.7155 70.7872 32.3723 68.9951 27.7734C67.2857 23.3862 69.1705 18.4853 73.2213 16.3189C73.5444 16.1461 73.8809 15.9902 74.2308 15.8541C74.3563 15.8052 74.4825 15.7596 74.6088 15.7163C74.7315 15.6742 74.8549 15.6353 74.9784 15.5987C75.3567 15.4871 75.7375 15.4018 76.1189 15.3403C76.6851 15.2489 77.2528 15.2122 77.8152 15.227C79.5581 15.2739 81.2459 15.8178 82.6799 16.7722C84.2011 17.7839 85.4364 19.2579 86.1498 21.0901C87.9467 25.7024 85.7723 30.8824 81.2835 32.8554Z" fill="#FFF0EB"/>
<path d="M78.6384 16.6956C77.3601 16.5255 76.023 16.6661 74.7387 17.1662C70.6767 18.7486 68.6595 23.341 70.2421 27.4031C71.8246 31.4652 76.4173 33.4824 80.4787 31.8999C84.5409 30.3167 86.558 25.7251 84.9755 21.663C83.8932 18.8855 81.4032 17.0635 78.6384 16.6956ZM76.5194 32.8281C73.5924 32.4386 70.9574 30.5112 69.8119 27.5703C68.1369 23.2715 70.2719 18.411 74.571 16.7361C78.8701 15.0611 83.7307 17.1962 85.4057 21.495C87.0807 25.7947 84.9456 30.6551 80.6467 32.3301C79.2879 32.859 77.8723 33.0081 76.5194 32.8281Z" fill="#FCB497"/>
<path d="M80.8251 27.694C80.6512 27.623 80.4761 27.5522 80.3021 27.4811C79.8829 27.3113 79.4645 27.1401 79.0452 26.9702C78.5398 26.7651 78.0354 26.5597 77.5299 26.3546C77.0917 26.1763 76.6535 25.9979 76.2157 25.8206C76.003 25.7339 75.7917 25.6434 75.5764 25.5607C75.5735 25.5594 75.5706 25.5581 75.5677 25.5568C75.6599 25.658 75.7522 25.7591 75.8433 25.8606C75.8146 25.7654 75.7856 25.6693 75.7569 25.5741C75.6144 25.7995 75.4728 26.0236 75.3302 26.249C75.5544 26.1815 75.7797 26.1136 76.0039 26.0461C76.2349 25.9765 76.4705 25.9132 76.6988 25.8346C77.2274 25.6525 77.7222 25.3538 78.0946 24.963C78.4536 24.586 78.7241 24.1374 78.8451 23.665C78.9693 23.1785 78.9608 22.6697 78.7927 22.2122C78.6263 21.7608 78.3311 21.3503 77.9222 21.0517C77.5214 20.7593 77.029 20.5514 76.4993 20.4837C75.9999 20.4199 75.4849 20.4592 74.9892 20.6085C74.4924 20.7581 73.9944 20.9081 73.4976 21.0577C73.4814 21.0626 73.4664 21.0671 73.4502 21.072C73.3023 21.1165 73.1633 21.2196 73.0853 21.3414C73.0111 21.4588 72.9789 21.6237 73.0236 21.7468C73.0695 21.874 73.1585 21.9936 73.2992 22.0506C73.4396 22.1067 73.5952 22.121 73.7523 22.0737C74.2387 21.9272 74.7263 21.7803 75.2128 21.6338C75.3491 21.5928 75.4863 21.5547 75.6261 21.529C75.5734 21.5383 75.5196 21.548 75.4669 21.5573C75.6917 21.5169 75.9183 21.5033 76.1425 21.5155C76.0912 21.5124 76.0398 21.5093 75.9899 21.5069C76.2095 21.5205 76.4228 21.559 76.6268 21.621C76.5797 21.6068 76.5337 21.5922 76.4865 21.578C76.6841 21.6398 76.8692 21.7228 77.0404 21.8264C77.0001 21.8014 76.9601 21.7774 76.9197 21.7524C77.0947 21.8603 77.2517 21.9879 77.3877 22.1338C77.3559 22.0996 77.3242 22.0655 77.2939 22.032C77.4311 22.1819 77.5442 22.3478 77.6299 22.5274C77.6096 22.4854 77.5891 22.4425 77.5689 22.4005C77.6522 22.5764 77.7087 22.7638 77.7365 22.9564C77.7302 22.9103 77.7235 22.8631 77.7172 22.8169C77.7451 23.014 77.7426 23.2147 77.7111 23.4154C77.7187 23.3694 77.7262 23.3234 77.7329 23.2788C77.7002 23.4755 77.64 23.6684 77.5538 23.855C77.5736 23.8119 77.5936 23.7698 77.6134 23.7267C77.5281 23.9076 77.4197 24.079 77.2891 24.2396C77.3206 24.2017 77.3508 24.1642 77.3823 24.1263C77.2466 24.2907 77.0901 24.4405 76.9146 24.5731C76.9556 24.5422 76.9967 24.5112 77.037 24.4816C76.8568 24.6157 76.6605 24.7294 76.4508 24.8199C76.4998 24.7986 76.55 24.7769 76.599 24.7556C76.4003 24.8406 76.192 24.8978 75.9852 24.9601C75.7298 25.037 75.4756 25.1136 75.2203 25.1905C75.1567 25.2096 75.092 25.2291 75.0285 25.2482C74.7165 25.3422 74.5199 25.6516 74.6018 25.9231C74.6299 26.0163 74.6568 26.1098 74.6861 26.2026C74.7319 26.3461 74.8414 26.4628 74.9924 26.5245C75.0841 26.5613 75.1762 26.5991 75.268 26.636C75.6686 26.7983 76.0695 26.9617 76.4701 27.124C77.0015 27.3399 77.5329 27.5557 78.0646 27.7726C78.543 27.9672 79.0226 28.1615 79.501 28.3562C79.7382 28.453 79.9745 28.5512 80.2122 28.6457C80.2151 28.647 80.2192 28.648 80.2221 28.6493C80.3599 28.705 80.5215 28.7186 80.6752 28.6724C80.8173 28.6296 80.9697 28.5247 81.0401 28.4029C81.1119 28.2775 81.1493 28.1296 81.1019 27.9975C81.0557 27.8694 80.9658 27.7511 80.8251 27.694Z" fill="#FCB497"/>
<path d="M73.7379 22.071C73.9412 22.0098 74.1445 21.9486 74.3478 21.8873C74.8364 21.7402 75.325 21.5931 75.8136 21.446C76.4027 21.2686 76.9906 21.0915 77.5797 20.9141C78.0903 20.7604 78.6008 20.6066 79.1114 20.4529C79.3597 20.3781 79.609 20.3063 79.8552 20.2289C79.8587 20.2278 79.8622 20.2268 79.8656 20.2258C80.0135 20.1812 80.1525 20.0782 80.2304 19.9564C80.3047 19.839 80.3368 19.6742 80.2922 19.5511C80.2463 19.424 80.1573 19.3044 80.0166 19.2473C79.8762 19.1913 79.7207 19.1769 79.5636 19.2242C79.3603 19.2855 79.157 19.3467 78.9537 19.4079C78.4651 19.555 77.9765 19.7022 77.4879 19.8493C76.8988 20.0267 76.3108 20.2037 75.7217 20.3811C75.2112 20.5349 74.7006 20.6886 74.1901 20.8423C73.9417 20.9171 73.6925 20.9889 73.4462 21.0663C73.4427 21.0674 73.4393 21.0684 73.4358 21.0695C73.288 21.114 73.1489 21.217 73.071 21.3388C72.9968 21.4562 72.9646 21.621 73.0093 21.7442C73.0552 21.8713 73.1442 21.9909 73.2849 22.0479C73.4253 22.104 73.5819 22.118 73.7379 22.071Z" fill="#FCB497"/>
<path d="M74.3843 24.2037C74.5876 24.1425 74.7909 24.0812 74.9942 24.02C75.4828 23.8729 75.9714 23.7257 76.4601 23.5786C77.0492 23.4012 77.6371 23.2242 78.2262 23.0468C78.7368 22.893 79.2473 22.7393 79.7579 22.5855C80.0062 22.5107 80.2555 22.439 80.5018 22.3615C80.5052 22.3605 80.5087 22.3594 80.5122 22.3584C80.66 22.3139 80.7991 22.2108 80.877 22.0891C80.9512 21.9717 80.9834 21.8069 80.9387 21.6838C80.8928 21.5567 80.8038 21.4371 80.6632 21.3801C80.5228 21.324 80.3673 21.3097 80.2102 21.357C80.0069 21.4182 79.8036 21.4794 79.6003 21.5407C79.1116 21.6878 78.623 21.8349 78.1344 21.9821C77.5453 22.1595 76.9574 22.3365 76.3683 22.5139C75.8577 22.6677 75.3472 22.8214 74.8366 22.9751C74.5882 23.0499 74.339 23.1217 74.0927 23.1992C74.0892 23.2002 74.0858 23.2012 74.0823 23.2023C73.9345 23.2468 73.7954 23.3498 73.7175 23.4716C73.6433 23.589 73.6111 23.7538 73.6558 23.8769C73.7017 24.004 73.7906 24.1236 73.9313 24.1806C74.0714 24.2356 74.2284 24.2506 74.3843 24.2037Z" fill="#FCB497"/>
<path d="M129.938 46.4476C129.817 46.3931 129.697 46.3343 129.579 46.2735C129.538 46.2527 129.498 46.2325 129.459 46.2108C129.368 46.1626 129.278 46.1136 129.189 46.0637C124.952 43.6347 123.329 38.2791 125.578 33.8851C127.723 29.6936 132.638 27.8483 136.948 29.4383C137.292 29.5652 137.632 29.7132 137.966 29.8845C138.086 29.9458 138.204 30.0099 138.32 30.0756C138.433 30.1393 138.544 30.2057 138.653 30.2738C138.988 30.4825 139.305 30.7106 139.604 30.9549C140.048 31.3176 140.453 31.7176 140.815 32.1479C141.938 33.4822 142.652 35.1053 142.891 36.8112C143.144 38.6205 142.863 40.5229 141.966 42.273C139.711 46.6793 134.394 48.4935 129.938 46.4476Z" fill="#FFF0EB"/>
<path d="M140.261 33.7423C139.539 32.6735 138.546 31.7672 137.319 31.1392C133.439 29.1529 128.665 30.6944 126.679 34.5752C124.693 38.4559 126.235 43.2293 130.115 45.2149C133.996 47.2008 138.769 45.6598 140.755 41.7791C142.113 39.1254 141.822 36.0538 140.261 33.7423ZM126.792 42.8711C125.139 40.4241 124.831 37.174 126.269 34.3646C128.37 30.2575 133.422 28.6261 137.529 30.7281C141.637 32.8301 143.268 37.8821 141.166 41.9892C139.064 46.0968 134.012 47.7281 129.905 45.6262C128.607 44.9616 127.556 44.0022 126.792 42.8711Z" fill="#FCB497"/>
<path d="M133.492 42.6813C133.429 42.504 133.366 42.3261 133.304 42.1489C133.152 41.7226 133.002 41.2961 132.851 40.8698C132.669 40.3557 132.487 39.8422 132.305 39.3281C132.147 38.882 131.99 38.436 131.831 37.9908C131.755 37.7742 131.682 37.5562 131.601 37.3403C131.6 37.3373 131.599 37.3342 131.598 37.3312C131.584 37.4673 131.57 37.6035 131.554 37.739C131.606 37.6543 131.659 37.5688 131.711 37.4842C131.448 37.5273 131.186 37.5702 130.923 37.6133C131.122 37.7361 131.323 37.8594 131.522 37.9822C131.728 38.1088 131.931 38.2428 132.142 38.3614C132.629 38.6356 133.181 38.8072 133.72 38.8261C134.241 38.8442 134.756 38.7486 135.189 38.5253C135.635 38.2951 136.01 37.9509 136.241 37.5213C136.468 37.0971 136.579 36.6039 136.53 36.0998C136.483 35.6061 136.311 35.0998 136.01 34.6588C135.726 34.2431 135.355 33.8841 134.914 33.6126C134.472 33.3405 134.029 33.0678 133.587 32.7957C133.573 32.7868 133.56 32.7786 133.545 32.7698C133.414 32.6888 133.244 32.6532 133.102 32.6759C132.964 32.6983 132.82 32.7837 132.757 32.8989C132.693 33.0176 132.663 33.1636 132.713 33.3067C132.765 33.4489 132.857 33.5748 132.997 33.6608C133.43 33.9272 133.863 34.1943 134.296 34.4607C134.417 34.5353 134.537 34.6127 134.649 34.7001C134.607 34.6669 134.564 34.6331 134.522 34.5999C134.701 34.7411 134.862 34.9015 135.002 35.0773C134.97 35.0368 134.938 34.9963 134.907 34.9574C135.042 35.1307 135.155 35.3157 135.244 35.5094C135.224 35.4647 135.204 35.4207 135.183 35.376C135.268 35.5647 135.329 35.7583 135.365 35.955C135.357 35.9083 135.349 35.8624 135.341 35.8157C135.376 36.0182 135.385 36.2202 135.366 36.4188C135.371 36.3724 135.375 36.326 135.38 36.2811C135.359 36.4832 135.31 36.6779 135.233 36.8613C135.251 36.8183 135.269 36.7744 135.287 36.7314C135.211 36.9105 135.108 37.0772 134.983 37.2259C135.013 37.1905 135.044 37.1542 135.074 37.1188C134.946 37.2705 134.794 37.4019 134.623 37.5117C134.662 37.4868 134.702 37.4619 134.739 37.4373C134.571 37.5435 134.386 37.6265 134.19 37.686C134.235 37.6722 134.28 37.6592 134.325 37.6454C134.133 37.7017 133.933 37.7345 133.726 37.7435C133.776 37.7419 133.824 37.7396 133.873 37.7379C133.66 37.7456 133.444 37.7281 133.228 37.685C133.279 37.6951 133.329 37.7053 133.378 37.7157C133.158 37.67 132.943 37.5988 132.736 37.5021C132.784 37.5246 132.834 37.5477 132.882 37.5702C132.687 37.4781 132.506 37.3603 132.322 37.2471C132.095 37.1072 131.869 36.968 131.642 36.8282C131.585 36.7934 131.527 36.7579 131.471 36.7231C131.194 36.5523 130.832 36.6108 130.683 36.8523C130.632 36.9351 130.58 37.0174 130.53 37.1009C130.453 37.2304 130.439 37.3899 130.493 37.5436C130.526 37.6367 130.559 37.7307 130.592 37.8237C130.737 38.2311 130.881 38.6393 131.026 39.0466C131.217 39.5873 131.409 40.1279 131.6 40.6695C131.772 41.1564 131.945 41.644 132.117 42.131C132.202 42.3726 132.286 42.6145 132.373 42.855C132.374 42.858 132.376 42.8617 132.377 42.8648C132.427 43.0048 132.524 43.1347 132.661 43.2189C132.787 43.2967 132.967 43.341 133.104 43.3128C133.246 43.2832 133.381 43.2129 133.449 43.0897C133.514 42.9701 133.542 42.8244 133.492 42.6813Z" fill="#FCB497"/>
<path d="M132.999 33.654C133.18 33.7653 133.361 33.8767 133.542 33.988C133.976 34.2556 134.41 34.5232 134.845 34.7908C135.369 35.1135 135.892 35.4355 136.415 35.7582C136.869 36.0378 137.323 36.3174 137.777 36.597C137.998 36.7331 138.217 36.8717 138.439 37.0045C138.442 37.0064 138.445 37.0083 138.448 37.0102C138.58 37.0911 138.749 37.1266 138.892 37.104C139.029 37.0816 139.173 36.9962 139.236 36.881C139.3 36.7623 139.331 36.6163 139.28 36.4733C139.229 36.3311 139.136 36.2053 138.996 36.1192C138.816 36.0079 138.635 35.8965 138.454 35.7852C138.02 35.5176 137.585 35.25 137.151 34.9824C136.627 34.6597 136.104 34.3377 135.58 34.0151C135.126 33.7354 134.672 33.4558 134.218 33.1762C133.997 33.0402 133.778 32.9015 133.557 32.7688C133.554 32.7669 133.55 32.765 133.547 32.7631C133.416 32.6821 133.247 32.6466 133.104 32.6692C132.967 32.6917 132.822 32.777 132.76 32.8922C132.695 33.0109 132.665 33.1569 132.716 33.3C132.767 33.4421 132.861 33.5686 132.999 33.654Z" fill="#FCB497"/>
<path d="M131.833 35.5484C132.014 35.6598 132.195 35.7711 132.376 35.8824C132.81 36.1501 133.245 36.4177 133.679 36.6853C134.203 37.0079 134.726 37.3299 135.25 37.6526C135.704 37.9322 136.158 38.2119 136.612 38.4915C136.832 38.6275 137.052 38.7662 137.273 38.8989C137.276 38.9008 137.279 38.9027 137.282 38.9046C137.414 38.9856 137.583 39.0211 137.726 38.9985C137.863 38.976 138.008 38.8907 138.07 38.7755C138.134 38.6568 138.165 38.5109 138.114 38.3678C138.063 38.2256 137.97 38.0998 137.83 38.0138C137.65 37.9025 137.469 37.7911 137.288 37.6798C136.854 37.4122 136.419 37.1445 135.985 36.8769C135.461 36.5543 134.938 36.2323 134.414 35.9096C133.96 35.63 133.506 35.3503 133.052 35.0707C132.831 34.9347 132.612 34.796 132.391 34.6633C132.388 34.6614 132.384 34.6595 132.381 34.6576C132.25 34.5766 132.081 34.5411 131.938 34.5637C131.801 34.5862 131.656 34.6715 131.594 34.7867C131.529 34.9054 131.499 35.0513 131.55 35.1944C131.602 35.3357 131.695 35.463 131.833 35.5484Z" fill="#FCB497"/>
<path d="M89.9528 48.3609C89.5277 48.3609 89.2391 48.5377 89.1916 48.833C89.1476 49.1068 89.3297 49.464 89.8335 49.6015C90.612 49.8135 91.6234 49.6674 92.2777 49.5261C91.7703 49.0566 90.9183 48.4096 90.0376 48.3633C90.0089 48.3617 89.9806 48.3609 89.9528 48.3609ZM90.7433 50.5312C90.3598 50.5312 89.9728 50.494 89.6166 50.397C88.6659 50.1377 88.2737 49.3481 88.3776 48.7022C88.4769 48.0842 89.0426 47.485 90.0811 47.5398C91.8293 47.6319 93.3228 49.4096 93.3855 49.4852L93.7754 49.9555L93.1935 50.1412C93.1291 50.1618 91.9533 50.5312 90.7433 50.5312Z" fill="#DDCAFF"/>
<path d="M92.605 50.4118C91.9523 50.4507 91.0371 50.6127 90.6248 51.1008C90.3733 51.3985 90.4843 51.6419 90.6217 51.7938C90.8367 52.0315 91.2463 52.1599 91.5817 51.9296C92.0583 51.6027 92.4058 50.9253 92.605 50.4118ZM91.2022 52.875C90.7334 52.875 90.2906 52.657 90.0103 52.347C89.5334 51.82 89.5274 51.122 89.995 50.5687C90.9275 49.4646 93.1063 49.5786 93.1987 49.5839L93.6965 49.6129L93.5743 50.0964C93.5561 50.1688 93.1144 51.878 92.0482 52.6095C91.7769 52.7957 91.4848 52.875 91.2022 52.875Z" fill="#DDCAFF"/>
<path d="M91.5704 46.4098C91.2778 48.0679 94.0089 48.3604 93.2286 50.6038C92.4484 52.847 84.6455 56.1634 84.6455 65.1365C84.6455 74.1097 95.1793 74.4023 100.934 74.4023C106.688 74.4023 114.784 72.3542 114.784 65.9168C114.784 59.4795 104.756 52.7481 104.835 50.6038C104.933 47.9703 108.349 47.0601 107.371 45.532C106.526 44.2112 105.881 44.3785 104.956 44.5458C104.173 44.6874 103.189 44.8289 101.714 44.069C99.9411 43.1555 99.2304 43.7763 98.5323 44.3969C97.9421 44.9217 97.361 45.4465 96.1546 45.0443C94.4662 44.4815 91.9301 44.3723 91.5704 46.4098Z" fill="#EBDFFF"/>
<path d="M98.1374 72.5194C89.9909 72.5194 86.5716 69.3082 84.8874 67.3269C84.7316 66.6604 84.6484 65.9314 84.6484 65.1333C84.6484 63.8457 84.8089 62.6754 85.0864 61.6072C85.5577 63.8132 86.5119 65.8885 88.1615 67.5036C90.4984 69.7916 93.9666 70.8422 97.3628 70.8422C97.6163 70.8422 97.8692 70.8363 98.1214 70.8247C100.196 70.729 102.287 70.2619 104.043 69.2238C107.31 67.2931 108.992 63.6707 109.721 60.1211C109.926 59.1218 110.071 58.1138 110.19 57.102C110.877 57.8778 111.555 58.6925 112.17 59.5322C112.149 60.047 112.11 60.5607 112.053 61.0718C111.848 62.9334 111.399 64.7866 110.53 66.3451C109.717 67.8018 108.566 68.9492 107.313 69.8444C105.084 71.4367 102.515 72.3314 99.9264 72.4702C99.3063 72.5035 98.7099 72.5194 98.1374 72.5194Z" fill="#E5D6FF"/>
<path d="M101.543 48.668C101.51 48.668 101.478 48.6628 101.445 48.6511C101.31 48.6035 101.233 48.4617 101.195 48.3242C101.09 47.9499 101.183 47.5528 101.255 47.1707C101.458 46.0929 101.491 44.9835 101.355 43.8952C101.471 43.9451 101.591 44.0022 101.717 44.067C102.607 44.5258 103.319 44.6559 103.915 44.6559C104.04 44.6559 104.159 44.6503 104.274 44.6407C103.611 45.9975 103.043 47.4202 101.957 48.4485C101.842 48.5579 101.694 48.668 101.543 48.668ZM97.1925 47.6713C96.9641 47.6713 96.736 47.564 96.5606 47.4118C96.3434 47.2234 96.1912 46.9728 96.0395 46.7285C95.593 46.0099 95.1063 45.2943 94.4313 44.7842C94.3902 44.7531 94.3483 44.723 94.3057 44.6936C94.9423 44.7186 95.5967 44.8555 96.1573 45.0423C96.456 45.1418 96.7162 45.1846 96.9479 45.1846C97.6519 45.1846 98.0909 44.7897 98.5349 44.3949C98.6634 44.2806 98.7924 44.1664 98.9283 44.0618C98.6099 44.8706 98.381 45.7118 98.1477 46.5495C98.02 47.008 97.818 47.54 97.3554 47.6521C97.3016 47.6652 97.2471 47.6713 97.1925 47.6713Z" fill="#D2C1F2"/>
<path d="M100.938 74.3984C95.6952 74.3984 86.4852 74.1553 84.8887 67.3261C86.5729 69.3074 89.9922 72.5187 98.1386 72.5187C98.7111 72.5187 99.3075 72.5028 99.9277 72.4695C102.516 72.3307 105.085 71.4359 107.314 69.8436C108.567 68.9485 109.718 67.8011 110.531 66.3443C111.4 64.7858 111.849 62.9327 112.055 61.0711C112.111 60.56 112.15 60.0463 112.171 59.5314C113.664 61.5696 114.788 63.7575 114.788 65.9129C114.788 72.3503 106.693 74.3984 100.938 74.3984Z" fill="#D2C1F2"/>
<path d="M93.1829 50.1103C92.4541 50.3346 92.8992 51.2301 92.8992 51.2301C92.8992 51.2301 95.0751 52.5988 98.9875 52.6618C102.9 52.7249 105.004 51.4519 105.257 50.8839C105.509 50.316 104.903 50.0271 104.903 50.0271C104.903 50.0271 102.686 51.3018 98.7797 50.9692C95.1607 50.6612 94.0032 49.8579 93.1829 50.1103Z" fill="#DDCAFF"/>
<path d="M99.7711 52.0273C99.4217 52.0273 99.0515 52.017 98.6608 51.9946C95.6235 51.8214 93.6814 50.9259 92.8115 50.4329C92.865 50.2937 92.9776 50.1726 93.1885 50.1077C93.1912 50.1068 93.1938 50.1061 93.1965 50.1053L93.9708 50.104C94.8158 50.2539 96.1459 50.742 98.7853 50.9666C99.2362 51.005 99.6643 51.022 100.069 51.022C102.704 51.022 104.352 50.3037 104.79 50.0862L105.01 50.0859C105.102 50.1504 105.233 50.2657 105.292 50.4311C104.747 50.9896 103.266 52.0275 99.7711 52.0273Z" fill="#EFE8FD"/>
<path d="M93.293 49.3036C92.5532 49.4885 92.9605 50.3288 92.9605 50.3288C92.9605 50.3288 95.1713 51.457 99.0837 51.5201C102.996 51.5833 104.844 50.7304 105.096 50.1626C105.349 49.5946 105.152 49.359 105.152 49.359C105.152 49.359 102.741 50.772 98.8343 50.4396C95.2154 50.1316 93.7364 49.1928 93.293 49.3036Z" fill="#DDCAFF"/>
<path d="M95.9305 55.7566C95.7878 55.9943 95.4483 56.7646 95.6674 56.896C95.8865 57.0276 103.468 57.0714 103.731 56.896C103.994 56.7207 104.257 55.9757 104.126 55.8004C103.994 55.625 96.0619 55.5374 95.9305 55.7566Z" fill="#D2C1F2"/>
<path d="M95.4919 58.6512C95.3493 58.8889 95.0099 59.6592 95.2289 59.7907C95.4481 59.9221 103.03 59.9658 103.293 59.7907C103.556 59.6154 103.819 58.8704 103.687 58.695C103.556 58.5197 95.6234 58.4321 95.4919 58.6512Z" fill="#D2C1F2"/>
<path d="M98.3036 56.7269C98.3036 56.7269 100.795 57.2066 100.795 59.617C100.795 62.0274 96.4121 61.9836 96.0615 61.9836C95.7108 61.9836 95.667 62.7285 95.7547 62.9476C95.8423 63.1668 100.557 67.8675 100.777 67.9551C100.996 68.0428 101.785 67.5169 101.785 67.2102C101.785 66.9034 97.6391 62.9914 97.6391 62.9914C97.6391 62.9914 102.153 62.9038 102.153 59.4856C102.153 56.8888 100.269 56.0233 100.269 56.0233" fill="#D2C1F2"/>
</svg>
