<svg width="8" height="11" viewBox="0 0 8 11" fill="none" xmlns="http://www.w3.org/2000/svg">
<path d="M6.04587 9.54639C5.89242 9.42014 5.73771 9.29388 5.58426 9.16762C5.21395 8.86483 4.84491 8.56091 4.4746 8.25812C4.02821 7.89276 3.58308 7.52739 3.13668 7.16203C2.74989 6.84471 2.3631 6.52739 1.9763 6.21119C1.78861 6.057 1.60346 5.89945 1.41196 5.74862C1.40943 5.74638 1.40689 5.74415 1.40436 5.74191C1.4665 5.87376 1.52864 6.0056 1.58951 6.13744C1.58951 6.0313 1.58951 5.92404 1.58951 5.81789C1.37772 6.00448 1.16721 6.18996 0.955422 6.37655C1.20145 6.37655 1.44874 6.37655 1.69477 6.37655C1.9484 6.37655 2.20457 6.38437 2.45821 6.37432C3.04537 6.35085 3.63381 6.19778 4.12712 5.91286C4.60269 5.638 5.01104 5.26258 5.27609 4.81677C5.54875 4.35755 5.69459 3.83464 5.66415 3.31509C5.63372 2.80224 5.46124 2.29162 5.1404 1.86034C4.82589 1.43799 4.39344 1.07374 3.8811 0.841338C3.39792 0.622342 2.86783 0.503906 2.32378 0.503906C1.77847 0.503906 1.23188 0.503906 0.686569 0.503906C0.668815 0.503906 0.652328 0.503906 0.634574 0.503906C0.472248 0.503906 0.301044 0.566476 0.18564 0.667035C0.0753092 0.764242 -0.00712199 0.922902 0.000487057 1.06257C0.0080961 1.2067 0.0613593 1.35642 0.18564 1.4581C0.309921 1.55866 0.462102 1.62123 0.634574 1.62123C1.16848 1.62123 1.70364 1.62123 2.23755 1.62123C2.38719 1.62123 2.53683 1.62458 2.68521 1.64134C2.62941 1.63464 2.57234 1.62793 2.51654 1.62123C2.75496 1.64916 2.98704 1.70503 3.20897 1.78659C3.15824 1.7676 3.10751 1.7486 3.05805 1.73073C3.27491 1.81229 3.47782 1.91732 3.66424 2.04358C3.62112 2.01453 3.57927 1.98548 3.53616 1.95642C3.71624 2.08045 3.87729 2.22235 4.01806 2.38101C3.98509 2.34302 3.95212 2.30615 3.91914 2.26816C4.06245 2.4324 4.18166 2.61118 4.27423 2.80224C4.25267 2.75754 4.23111 2.71285 4.21082 2.66928C4.3034 2.86481 4.36681 3.06928 4.39851 3.27933C4.39091 3.23017 4.3833 3.17989 4.37569 3.13073C4.40612 3.33632 4.40612 3.54526 4.37569 3.75084C4.3833 3.70168 4.39091 3.6514 4.39851 3.60224C4.36681 3.8123 4.3034 4.01677 4.21082 4.2123C4.23238 4.16761 4.25394 4.12291 4.27423 4.07934C4.18166 4.2704 4.06245 4.44917 3.91914 4.61342C3.95212 4.57543 3.98509 4.53856 4.01806 4.50057C3.87729 4.65923 3.71624 4.80113 3.53616 4.92515C3.57927 4.8961 3.62112 4.86705 3.66424 4.838C3.47782 4.96426 3.27491 5.06928 3.05805 5.15085C3.10878 5.13185 3.15951 5.11286 3.20897 5.09498C2.98704 5.17655 2.75496 5.23241 2.51654 5.26035C2.57234 5.25364 2.62941 5.24694 2.68521 5.24023C2.45948 5.26593 2.23247 5.26035 2.00547 5.26035C1.7252 5.26035 1.44621 5.26035 1.16594 5.26035C1.09619 5.26035 1.02517 5.26035 0.955422 5.26035C0.613015 5.26035 0.321335 5.51621 0.321335 5.81901C0.321335 5.92292 0.320067 6.02683 0.321335 6.13074C0.323871 6.29163 0.398694 6.44471 0.531852 6.5542C0.613015 6.62013 0.694178 6.68717 0.775341 6.75309C1.12916 7.04247 1.48298 7.33298 1.8368 7.62236C2.30603 8.00672 2.77525 8.39108 3.24448 8.77656C3.66678 9.12293 4.09035 9.4693 4.51265 9.81567C4.7219 9.98773 4.92988 10.1609 5.1404 10.3308C5.14293 10.333 5.14674 10.3352 5.14927 10.3375C5.27102 10.4369 5.42954 10.5006 5.59821 10.5006C5.75419 10.5006 5.93935 10.4403 6.04714 10.3375C6.15747 10.2313 6.2399 10.0916 6.23229 9.94193C6.22468 9.79667 6.17015 9.64807 6.04587 9.54639Z" fill="#4313A1"/>
<path d="M0.634576 1.61881C0.857775 1.61881 1.08097 1.61881 1.30417 1.61881C1.84061 1.61881 2.37705 1.61881 2.91349 1.61881C3.56026 1.61881 4.20576 1.61881 4.85253 1.61881C5.41307 1.61881 5.9736 1.61881 6.53414 1.61881C6.8068 1.61881 7.07945 1.62216 7.35084 1.61881C7.35465 1.61881 7.35845 1.61881 7.36226 1.61881C7.52458 1.61881 7.69579 1.55624 7.81119 1.45568C7.92152 1.35848 8.00396 1.19982 7.99635 1.06015C7.98874 0.916016 7.93547 0.766295 7.81119 0.664619C7.68691 0.56406 7.53473 0.50149 7.36226 0.50149C7.13906 0.50149 6.91586 0.50149 6.69266 0.50149C6.15622 0.50149 5.61978 0.50149 5.08334 0.50149C4.43657 0.50149 3.79107 0.50149 3.1443 0.50149C2.58377 0.50149 2.02323 0.50149 1.4627 0.50149C1.19004 0.50149 0.91738 0.498138 0.64599 0.50149C0.642185 0.50149 0.63838 0.50149 0.634576 0.50149C0.472249 0.50149 0.301045 0.56406 0.185641 0.664619C0.0753096 0.761826 -0.00712201 0.920486 0.000487058 1.06015C0.00809612 1.20429 0.0613597 1.35401 0.185641 1.45568C0.309922 1.55624 0.463372 1.61881 0.634576 1.61881Z" fill="#4313A1"/>
<path d="M0.638482 4.00162C0.861681 4.00162 1.08488 4.00162 1.30808 4.00162C1.84452 4.00162 2.38096 4.00162 2.9174 4.00162C3.56417 4.00162 4.20967 4.00162 4.85644 4.00162C5.41698 4.00162 5.97751 4.00162 6.53804 4.00162C6.8107 4.00162 7.08336 4.00497 7.35475 4.00162C7.35856 4.00162 7.36236 4.00162 7.36616 4.00162C7.52849 4.00162 7.69969 3.93905 7.8151 3.83849C7.92543 3.74128 8.00786 3.58263 8.00025 3.44296C7.99264 3.29883 7.93938 3.14911 7.8151 3.04743C7.69082 2.94687 7.53864 2.8843 7.36616 2.8843C7.14297 2.8843 6.91977 2.8843 6.69657 2.8843C6.16013 2.8843 5.62369 2.8843 5.08725 2.8843C4.44048 2.8843 3.79498 2.8843 3.14821 2.8843C2.58767 2.8843 2.02714 2.8843 1.4666 2.8843C1.19394 2.8843 0.921286 2.88095 0.649896 2.8843C0.646091 2.8843 0.642287 2.8843 0.638482 2.8843C0.476155 2.8843 0.304951 2.94687 0.189547 3.04743C0.0792159 3.14464 -0.00321576 3.3033 0.00439331 3.44296C0.0120024 3.58709 0.0652659 3.73681 0.189547 3.83849C0.313829 3.93793 0.467278 4.00162 0.638482 4.00162Z" fill="#4313A1"/>
</svg>
