<svg width="92" height="24" viewBox="0 0 92 24" fill="none" xmlns="http://www.w3.org/2000/svg">
<path fill-rule="evenodd" clip-rule="evenodd" d="M82 0H0L5.47619 12L10.9524 24H92V10C92 4.47715 87.5229 0 82 0Z" fill="#FFE1D5"/>
<path d="M27.02 16.12C26.5067 16.12 26.0567 16.03 25.67 15.85C25.2833 15.67 24.98 15.4133 24.76 15.08C24.5467 14.7467 24.4367 14.35 24.43 13.89H25.55C25.5567 14.2633 25.6867 14.58 25.94 14.84C26.1933 15.1 26.55 15.23 27.01 15.23C27.4167 15.23 27.7333 15.1333 27.96 14.94C28.1933 14.74 28.31 14.4867 28.31 14.18C28.31 13.9333 28.2533 13.7333 28.14 13.58C28.0333 13.4267 27.8833 13.3 27.69 13.2C27.5033 13.1 27.2867 13.01 27.04 12.93C26.7933 12.85 26.5333 12.7633 26.26 12.67C25.72 12.49 25.3133 12.2567 25.04 11.97C24.7733 11.6833 24.64 11.3067 24.64 10.84C24.6333 10.4467 24.7233 10.1033 24.91 9.81C25.1033 9.51667 25.37 9.29 25.71 9.13C26.0567 8.96333 26.46 8.88 26.92 8.88C27.3733 8.88 27.77 8.96333 28.11 9.13C28.4567 9.29667 28.7267 9.53 28.92 9.83C29.1133 10.1233 29.2133 10.4667 29.22 10.86H28.1C28.1 10.68 28.0533 10.51 27.96 10.35C27.8667 10.1833 27.73 10.0467 27.55 9.94C27.37 9.83333 27.15 9.78 26.89 9.78C26.5567 9.77333 26.28 9.85667 26.06 10.03C25.8467 10.2033 25.74 10.4433 25.74 10.75C25.74 11.0233 25.82 11.2333 25.98 11.38C26.14 11.5267 26.36 11.65 26.64 11.75C26.92 11.8433 27.24 11.9533 27.6 12.08C27.9467 12.1933 28.2567 12.33 28.53 12.49C28.8033 12.65 29.02 12.86 29.18 13.12C29.3467 13.38 29.43 13.71 29.43 14.11C29.43 14.4633 29.34 14.7933 29.16 15.1C28.98 15.4 28.71 15.6467 28.35 15.84C27.99 16.0267 27.5467 16.12 27.02 16.12ZM30.5489 16V8.8H31.6089V11.84C31.7756 11.5533 32.0056 11.33 32.2989 11.17C32.5989 11.0033 32.9289 10.92 33.2889 10.92C33.8822 10.92 34.3489 11.1067 34.6889 11.48C35.0289 11.8533 35.1989 12.41 35.1989 13.15V16H34.1489V13.26C34.1489 12.3 33.7656 11.82 32.9989 11.82C32.5989 11.82 32.2656 11.96 31.9989 12.24C31.7389 12.52 31.6089 12.92 31.6089 13.44V16H30.5489ZM38.7673 16.12C38.294 16.12 37.8673 16.0133 37.4873 15.8C37.114 15.58 36.8173 15.2767 36.5973 14.89C36.3773 14.4967 36.2673 14.04 36.2673 13.52C36.2673 13 36.3773 12.5467 36.5973 12.16C36.824 11.7667 37.1273 11.4633 37.5073 11.25C37.8873 11.03 38.3107 10.92 38.7773 10.92C39.2507 10.92 39.674 11.03 40.0473 11.25C40.4273 11.4633 40.7273 11.7667 40.9473 12.16C41.174 12.5467 41.2873 13 41.2873 13.52C41.2873 14.04 41.174 14.4967 40.9473 14.89C40.7273 15.2767 40.4273 15.58 40.0473 15.8C39.6673 16.0133 39.2407 16.12 38.7673 16.12ZM38.7673 15.21C39.0207 15.21 39.254 15.1467 39.4673 15.02C39.6873 14.8933 39.864 14.7067 39.9973 14.46C40.1307 14.2067 40.1973 13.8933 40.1973 13.52C40.1973 13.1467 40.1307 12.8367 39.9973 12.59C39.8707 12.3367 39.6973 12.1467 39.4773 12.02C39.264 11.8933 39.0307 11.83 38.7773 11.83C38.524 11.83 38.2873 11.8933 38.0673 12.02C37.854 12.1467 37.6807 12.3367 37.5473 12.59C37.414 12.8367 37.3473 13.1467 37.3473 13.52C37.3473 13.8933 37.414 14.2067 37.5473 14.46C37.6807 14.7067 37.854 14.8933 38.0673 15.02C38.2807 15.1467 38.514 15.21 38.7673 15.21ZM42.4337 16V11.04H43.3837L43.4737 11.98C43.647 11.6533 43.887 11.3967 44.1937 11.21C44.507 11.0167 44.8837 10.92 45.3237 10.92V12.03H45.0337C44.7403 12.03 44.477 12.08 44.2437 12.18C44.017 12.2733 43.8337 12.4367 43.6937 12.67C43.5603 12.8967 43.4937 13.2133 43.4937 13.62V16H42.4337ZM48.3125 16C47.8258 16 47.4392 15.8833 47.1525 15.65C46.8658 15.41 46.7225 14.9867 46.7225 14.38V11.93H45.8725V11.04H46.7225L46.8525 9.78H47.7825V11.04H49.1825V11.93H47.7825V14.38C47.7825 14.6533 47.8392 14.8433 47.9525 14.95C48.0725 15.05 48.2758 15.1 48.5625 15.1H49.1325V16H48.3125ZM54.475 16V9.86H52.405V9H57.595V9.86H55.535V16H54.475ZM59.9685 16.12C59.4818 16.12 59.0485 16.0133 58.6685 15.8C58.2952 15.58 58.0018 15.2767 57.7885 14.89C57.5752 14.5033 57.4685 14.0533 57.4685 13.54C57.4685 13.02 57.5718 12.5633 57.7785 12.17C57.9918 11.7767 58.2852 11.47 58.6585 11.25C59.0385 11.03 59.4785 10.92 59.9785 10.92C60.4652 10.92 60.8885 11.03 61.2485 11.25C61.6085 11.4633 61.8885 11.75 62.0885 12.11C62.2885 12.47 62.3885 12.8667 62.3885 13.3C62.3885 13.3667 62.3852 13.44 62.3785 13.52C62.3785 13.5933 62.3752 13.6767 62.3685 13.77H58.5085C58.5418 14.25 58.6985 14.6167 58.9785 14.87C59.2652 15.1167 59.5952 15.24 59.9685 15.24C60.2685 15.24 60.5185 15.1733 60.7185 15.04C60.9252 14.9 61.0785 14.7133 61.1785 14.48H62.2385C62.1052 14.9467 61.8385 15.3367 61.4385 15.65C61.0452 15.9633 60.5552 16.12 59.9685 16.12ZM59.9685 11.79C59.6152 11.79 59.3018 11.8967 59.0285 12.11C58.7552 12.3167 58.5885 12.63 58.5285 13.05H61.3285C61.3085 12.6633 61.1718 12.3567 60.9185 12.13C60.6652 11.9033 60.3485 11.79 59.9685 11.79ZM63.4884 16V11.04H64.4384L64.5284 11.98C64.7017 11.6533 64.9417 11.3967 65.2484 11.21C65.5617 11.0167 65.9384 10.92 66.3784 10.92V12.03H66.0884C65.795 12.03 65.5317 12.08 65.2984 12.18C65.0717 12.2733 64.8884 12.4367 64.7484 12.67C64.615 12.8967 64.5484 13.2133 64.5484 13.62V16H63.4884ZM67.2872 16V11.04H68.2272L68.3172 11.74C68.4772 11.4867 68.6872 11.2867 68.9472 11.14C69.2139 10.9933 69.5205 10.92 69.8672 10.92C70.6539 10.92 71.2005 11.23 71.5072 11.85C71.6872 11.5633 71.9272 11.3367 72.2272 11.17C72.5339 11.0033 72.8639 10.92 73.2172 10.92C73.8372 10.92 74.3239 11.1067 74.6772 11.48C75.0305 11.8533 75.2072 12.41 75.2072 13.15V16H74.1472V13.26C74.1472 12.3 73.7805 11.82 73.0472 11.82C72.6739 11.82 72.3672 11.96 72.1272 12.24C71.8939 12.52 71.7772 12.92 71.7772 13.44V16H70.7172V13.26C70.7172 12.3 70.3472 11.82 69.6072 11.82C69.2405 11.82 68.9372 11.96 68.6972 12.24C68.4639 12.52 68.3472 12.92 68.3472 13.44V16H67.2872Z" fill="#483D5C"/>
</svg>
