<svg width="136" height="21" viewBox="0 0 136 21" fill="none" xmlns="http://www.w3.org/2000/svg">
<defs>
<linearGradient id="paint0_linear_2336_538" x1="136" y1="21" x2="25.9437" y2="-43.9565" gradientUnits="userSpaceOnUse">
<stop stop-color="#4313A1"/>
<stop offset="0.9999" stop-color="#BD4238"/>
<stop offset="1" stop-color="#FF5C00"/>
</linearGradient>
</defs>
<path fill-rule="evenodd" clip-rule="evenodd" d="M0 0H136L131.558 12.6L128.596 21H0V0Z" fill="url(#paint0_linear_2336_538)"/>
<path d="M12.0833 7.91832V11.7454C12.0833 12.0198 12.1511 12.2899 12.2805 12.5318C12.41 12.7737 12.5971 12.9799 12.8254 13.1321L15 14.5821L17.1746 13.1321C17.4028 12.9799 17.5899 12.7738 17.7194 12.532C17.8488 12.2901 17.9166 12.0201 17.9167 11.7458V7.91832L15 7.27082L12.0833 7.91832ZM11.5762 7.17749L15 6.41666L18.4237 7.17749C18.5163 7.19806 18.599 7.24956 18.6583 7.32349C18.7177 7.39742 18.75 7.48937 18.75 7.58416V11.7454C18.75 12.157 18.6483 12.5621 18.4541 12.925C18.2599 13.2878 17.9791 13.5971 17.6367 13.8254L15 15.5833L12.3633 13.8254C12.0209 13.5972 11.7402 13.2879 11.546 12.9252C11.3518 12.5624 11.2501 12.1573 11.25 11.7458V7.58416C11.25 7.48937 11.2823 7.39742 11.3417 7.32349C11.401 7.24956 11.4837 7.19806 11.5762 7.17749V7.17749ZM15 11.625L13.7754 12.2687L14.0092 10.9054L13.0187 9.93957L14.3879 9.74041L15 8.49999L15.6125 9.74041L16.9812 9.93957L15.9908 10.9054L16.2242 12.2687L15 11.625Z" fill="white"/>
<path d="M26.97 14.12C26.4567 14.12 26.01 14.0267 25.63 13.84C25.25 13.6533 24.9567 13.3933 24.75 13.06C24.5433 12.7267 24.44 12.34 24.44 11.9H25.32C25.32 12.1733 25.3833 12.4267 25.51 12.66C25.6367 12.8867 25.82 13.07 26.06 13.21C26.3067 13.3433 26.61 13.41 26.97 13.41C27.4433 13.41 27.81 13.2967 28.07 13.07C28.33 12.8433 28.46 12.56 28.46 12.22C28.46 11.94 28.4 11.7167 28.28 11.55C28.16 11.3767 27.9967 11.2367 27.79 11.13C27.59 11.0233 27.3567 10.93 27.09 10.85C26.83 10.77 26.5567 10.68 26.27 10.58C25.73 10.3933 25.33 10.1633 25.07 9.89C24.81 9.61 24.68 9.24667 24.68 8.8C24.6733 8.42667 24.76 8.09667 24.94 7.81C25.12 7.51667 25.3733 7.29 25.7 7.13C26.0333 6.96333 26.4267 6.88 26.88 6.88C27.3267 6.88 27.7133 6.96333 28.04 7.13C28.3733 7.29667 28.63 7.52667 28.81 7.82C28.9967 8.11333 29.0933 8.44667 29.1 8.82H28.22C28.22 8.62667 28.17 8.43667 28.07 8.25C27.97 8.05667 27.8167 7.9 27.61 7.78C27.41 7.66 27.1567 7.6 26.85 7.6C26.47 7.59333 26.1567 7.69 25.91 7.89C25.67 8.09 25.55 8.36667 25.55 8.72C25.55 9.02 25.6333 9.25 25.8 9.41C25.9733 9.57 26.2133 9.70333 26.52 9.81C26.8267 9.91 27.18 10.0267 27.58 10.16C27.9133 10.28 28.2133 10.42 28.48 10.58C28.7467 10.74 28.9533 10.9467 29.1 11.2C29.2533 11.4533 29.33 11.7767 29.33 12.17C29.33 12.5033 29.2433 12.82 29.07 13.12C28.8967 13.4133 28.6333 13.6533 28.28 13.84C27.9333 14.0267 27.4967 14.12 26.97 14.12ZM32.2812 14.12C31.6946 14.12 31.2279 13.9433 30.8813 13.59C30.5346 13.23 30.3613 12.68 30.3613 11.94V9.04H31.2013V11.85C31.2013 12.8833 31.6246 13.4 32.4713 13.4C32.9046 13.4 33.2613 13.2467 33.5413 12.94C33.8279 12.6267 33.9713 12.1833 33.9713 11.61V9.04H34.8113V14H34.0513L33.9913 13.11C33.8379 13.4233 33.6079 13.67 33.3013 13.85C33.0013 14.03 32.6613 14.12 32.2812 14.12ZM38.1539 12.44C37.8739 12.44 37.6172 12.4033 37.3839 12.33L36.8839 12.8C36.9572 12.8533 37.0472 12.9 37.1539 12.94C37.2672 12.9733 37.4272 13.0067 37.6339 13.04C37.8406 13.0667 38.1306 13.0967 38.5039 13.13C39.1706 13.1767 39.6472 13.33 39.9339 13.59C40.2206 13.85 40.3639 14.19 40.3639 14.61C40.3639 14.8967 40.2839 15.17 40.1239 15.43C39.9706 15.69 39.7306 15.9033 39.4039 16.07C39.0839 16.2367 38.6706 16.32 38.1639 16.32C37.7172 16.32 37.3206 16.26 36.9739 16.14C36.6272 16.0267 36.3572 15.85 36.1639 15.61C35.9706 15.3767 35.8739 15.08 35.8739 14.72C35.8739 14.5333 35.9239 14.33 36.0239 14.11C36.1239 13.8967 36.3106 13.6933 36.5839 13.5C36.4372 13.44 36.3106 13.3767 36.2039 13.31C36.1039 13.2367 36.0106 13.1567 35.9239 13.07V12.84L36.7739 12C36.3806 11.6667 36.1839 11.2267 36.1839 10.68C36.1839 10.3533 36.2606 10.0567 36.4139 9.79C36.5672 9.52333 36.7906 9.31333 37.0839 9.16C37.3772 9 37.7339 8.92 38.1539 8.92C38.4406 8.92 38.7006 8.96 38.9339 9.04H40.7639V9.67L39.8339 9.71C40.0272 9.99 40.1239 10.3133 40.1239 10.68C40.1239 11.0067 40.0439 11.3033 39.8839 11.57C39.7306 11.8367 39.5072 12.05 39.2139 12.21C38.9272 12.3633 38.5739 12.44 38.1539 12.44ZM38.1539 11.75C38.5072 11.75 38.7872 11.66 38.9939 11.48C39.2072 11.2933 39.3139 11.0267 39.3139 10.68C39.3139 10.34 39.2072 10.08 38.9939 9.9C38.7872 9.71333 38.5072 9.62 38.1539 9.62C37.7939 9.62 37.5072 9.71333 37.2939 9.9C37.0872 10.08 36.9839 10.34 36.9839 10.68C36.9839 11.0267 37.0872 11.2933 37.2939 11.48C37.5072 11.66 37.7939 11.75 38.1539 11.75ZM36.6939 14.64C36.6939 14.9733 36.8339 15.22 37.1139 15.38C37.3939 15.5467 37.7439 15.63 38.1639 15.63C38.5772 15.63 38.9072 15.54 39.1539 15.36C39.4072 15.18 39.5339 14.94 39.5339 14.64C39.5339 14.4267 39.4472 14.24 39.2739 14.08C39.1006 13.9267 38.7806 13.8367 38.3139 13.81C37.9472 13.7833 37.6306 13.75 37.3639 13.71C37.0906 13.8567 36.9106 14.0133 36.8239 14.18C36.7372 14.3533 36.6939 14.5067 36.6939 14.64ZM43.6715 12.44C43.3915 12.44 43.1348 12.4033 42.9015 12.33L42.4015 12.8C42.4748 12.8533 42.5648 12.9 42.6715 12.94C42.7848 12.9733 42.9448 13.0067 43.1515 13.04C43.3582 13.0667 43.6482 13.0967 44.0215 13.13C44.6882 13.1767 45.1648 13.33 45.4515 13.59C45.7382 13.85 45.8815 14.19 45.8815 14.61C45.8815 14.8967 45.8015 15.17 45.6415 15.43C45.4882 15.69 45.2482 15.9033 44.9215 16.07C44.6015 16.2367 44.1882 16.32 43.6815 16.32C43.2348 16.32 42.8382 16.26 42.4915 16.14C42.1448 16.0267 41.8748 15.85 41.6815 15.61C41.4882 15.3767 41.3915 15.08 41.3915 14.72C41.3915 14.5333 41.4415 14.33 41.5415 14.11C41.6415 13.8967 41.8282 13.6933 42.1015 13.5C41.9548 13.44 41.8282 13.3767 41.7215 13.31C41.6215 13.2367 41.5282 13.1567 41.4415 13.07V12.84L42.2915 12C41.8982 11.6667 41.7015 11.2267 41.7015 10.68C41.7015 10.3533 41.7782 10.0567 41.9315 9.79C42.0848 9.52333 42.3082 9.31333 42.6015 9.16C42.8948 9 43.2515 8.92 43.6715 8.92C43.9582 8.92 44.2182 8.96 44.4515 9.04H46.2815V9.67L45.3515 9.71C45.5448 9.99 45.6415 10.3133 45.6415 10.68C45.6415 11.0067 45.5615 11.3033 45.4015 11.57C45.2482 11.8367 45.0248 12.05 44.7315 12.21C44.4448 12.3633 44.0915 12.44 43.6715 12.44ZM43.6715 11.75C44.0248 11.75 44.3048 11.66 44.5115 11.48C44.7248 11.2933 44.8315 11.0267 44.8315 10.68C44.8315 10.34 44.7248 10.08 44.5115 9.9C44.3048 9.71333 44.0248 9.62 43.6715 9.62C43.3115 9.62 43.0248 9.71333 42.8115 9.9C42.6048 10.08 42.5015 10.34 42.5015 10.68C42.5015 11.0267 42.6048 11.2933 42.8115 11.48C43.0248 11.66 43.3115 11.75 43.6715 11.75ZM42.2115 14.64C42.2115 14.9733 42.3515 15.22 42.6315 15.38C42.9115 15.5467 43.2615 15.63 43.6815 15.63C44.0948 15.63 44.4248 15.54 44.6715 15.36C44.9248 15.18 45.0515 14.94 45.0515 14.64C45.0515 14.4267 44.9648 14.24 44.7915 14.08C44.6182 13.9267 44.2982 13.8367 43.8315 13.81C43.4648 13.7833 43.1482 13.75 42.8815 13.71C42.6082 13.8567 42.4282 14.0133 42.3415 14.18C42.2548 14.3533 42.2115 14.5067 42.2115 14.64ZM49.2638 14.12C48.7904 14.12 48.3704 14.0133 48.0038 13.8C47.6371 13.58 47.3471 13.2767 47.1338 12.89C46.9271 12.5033 46.8238 12.0467 46.8238 11.52C46.8238 11 46.9271 10.5467 47.1338 10.16C47.3404 9.76667 47.6271 9.46333 47.9938 9.25C48.3671 9.03 48.7971 8.92 49.2837 8.92C49.7638 8.92 50.1771 9.03 50.5238 9.25C50.8771 9.46333 51.1471 9.74667 51.3338 10.1C51.5204 10.4533 51.6138 10.8333 51.6138 11.24C51.6138 11.3133 51.6104 11.3867 51.6038 11.46C51.6038 11.5333 51.6038 11.6167 51.6038 11.71H47.6538C47.6738 12.09 47.7604 12.4067 47.9138 12.66C48.0738 12.9067 48.2704 13.0933 48.5038 13.22C48.7438 13.3467 48.9971 13.41 49.2638 13.41C49.6104 13.41 49.9004 13.33 50.1338 13.17C50.3671 13.01 50.5371 12.7933 50.6438 12.52H51.4738C51.3404 12.98 51.0838 13.3633 50.7038 13.67C50.3304 13.97 49.8504 14.12 49.2638 14.12ZM49.2638 9.63C48.8638 9.63 48.5071 9.75333 48.1938 10C47.8871 10.24 47.7104 10.5933 47.6637 11.06H50.7838C50.7638 10.6133 50.6104 10.2633 50.3238 10.01C50.0371 9.75667 49.6838 9.63 49.2638 9.63ZM54.6271 14.12C54.0338 14.12 53.5404 13.97 53.1471 13.67C52.7538 13.37 52.5238 12.9633 52.4571 12.45H53.3171C53.3704 12.71 53.5071 12.9367 53.7271 13.13C53.9538 13.3167 54.2571 13.41 54.6371 13.41C54.9904 13.41 55.2504 13.3367 55.4171 13.19C55.5838 13.0367 55.6671 12.8567 55.6671 12.65C55.6671 12.35 55.5571 12.15 55.3371 12.05C55.1238 11.95 54.8204 11.86 54.4271 11.78C54.1604 11.7267 53.8938 11.65 53.6271 11.55C53.3604 11.45 53.1371 11.31 52.9571 11.13C52.7771 10.9433 52.6871 10.7 52.6871 10.4C52.6871 9.96667 52.8471 9.61333 53.1671 9.34C53.4938 9.06 53.9338 8.92 54.4871 8.92C55.0138 8.92 55.4438 9.05333 55.7771 9.32C56.1171 9.58 56.3138 9.95333 56.3671 10.44H55.5371C55.5038 10.1867 55.3938 9.99 55.2071 9.85C55.0271 9.70333 54.7838 9.63 54.4771 9.63C54.1771 9.63 53.9438 9.69333 53.7771 9.82C53.6171 9.94667 53.5371 10.1133 53.5371 10.32C53.5371 10.52 53.6404 10.6767 53.8471 10.79C54.0604 10.9033 54.3471 11 54.7071 11.08C55.0138 11.1467 55.3038 11.23 55.5771 11.33C55.8571 11.4233 56.0838 11.5667 56.2571 11.76C56.4371 11.9467 56.5271 12.22 56.5271 12.58C56.5338 13.0267 56.3638 13.3967 56.0171 13.69C55.6771 13.9767 55.2138 14.12 54.6271 14.12ZM59.4625 14C59.0092 14 58.6525 13.89 58.3925 13.67C58.1325 13.45 58.0025 13.0533 58.0025 12.48V9.75H57.1425V9.04H58.0025L58.1125 7.85H58.8425V9.04H60.3025V9.75H58.8425V12.48C58.8425 12.7933 58.9058 13.0067 59.0325 13.12C59.1592 13.2267 59.3825 13.28 59.7025 13.28H60.2225V14H59.4625ZM63.463 14.12C62.9896 14.12 62.5696 14.0133 62.203 13.8C61.8363 13.58 61.5463 13.2767 61.333 12.89C61.1263 12.5033 61.023 12.0467 61.023 11.52C61.023 11 61.1263 10.5467 61.333 10.16C61.5396 9.76667 61.8263 9.46333 62.193 9.25C62.5663 9.03 62.9963 8.92 63.483 8.92C63.963 8.92 64.3763 9.03 64.723 9.25C65.0763 9.46333 65.3463 9.74667 65.533 10.1C65.7196 10.4533 65.813 10.8333 65.813 11.24C65.813 11.3133 65.8096 11.3867 65.803 11.46C65.803 11.5333 65.803 11.6167 65.803 11.71H61.853C61.873 12.09 61.9596 12.4067 62.113 12.66C62.273 12.9067 62.4696 13.0933 62.703 13.22C62.943 13.3467 63.1963 13.41 63.463 13.41C63.8096 13.41 64.0996 13.33 64.333 13.17C64.5663 13.01 64.7363 12.7933 64.843 12.52H65.673C65.5396 12.98 65.283 13.3633 64.903 13.67C64.5296 13.97 64.0496 14.12 63.463 14.12ZM63.463 9.63C63.063 9.63 62.7063 9.75333 62.393 10C62.0863 10.24 61.9096 10.5933 61.863 11.06H64.983C64.963 10.6133 64.8096 10.2633 64.523 10.01C64.2363 9.75667 63.883 9.63 63.463 9.63ZM69.1763 14.12C68.683 14.12 68.2497 14.0067 67.8763 13.78C67.5097 13.5533 67.223 13.2433 67.0163 12.85C66.8163 12.4567 66.7163 12.01 66.7163 11.51C66.7163 11.01 66.8197 10.5667 67.0263 10.18C67.233 9.78667 67.5197 9.48 67.8863 9.26C68.253 9.03333 68.6863 8.92 69.1863 8.92C69.593 8.92 69.953 9.00333 70.2663 9.17C70.5797 9.33667 70.823 9.57 70.9963 9.87V6.8H71.8363V14H71.0763L70.9963 13.18C70.8363 13.42 70.6063 13.6367 70.3063 13.83C70.0063 14.0233 69.6297 14.12 69.1763 14.12ZM69.2663 13.39C69.5997 13.39 69.893 13.3133 70.1463 13.16C70.4063 13 70.6063 12.78 70.7463 12.5C70.893 12.22 70.9663 11.8933 70.9663 11.52C70.9663 11.1467 70.893 10.82 70.7463 10.54C70.6063 10.26 70.4063 10.0433 70.1463 9.89C69.893 9.73 69.5997 9.65 69.2663 9.65C68.9397 9.65 68.6463 9.73 68.3863 9.89C68.133 10.0433 67.933 10.26 67.7863 10.54C67.6463 10.82 67.5763 11.1467 67.5763 11.52C67.5763 11.8933 67.6463 12.22 67.7863 12.5C67.933 12.78 68.133 13 68.3863 13.16C68.6463 13.3133 68.9397 13.39 69.2663 13.39ZM78.5021 14.12C78.0954 14.12 77.7321 14.0367 77.4121 13.87C77.0988 13.7033 76.8588 13.47 76.6921 13.17L76.6121 14H75.8521V6.8H76.6921V9.86C76.8521 9.62 77.0788 9.40333 77.3721 9.21C77.6721 9.01667 78.0521 8.92 78.5121 8.92C79.0054 8.92 79.4354 9.03333 79.8021 9.26C80.1688 9.48667 80.4521 9.79667 80.6521 10.19C80.8588 10.5833 80.9621 11.03 80.9621 11.53C80.9621 12.03 80.8588 12.4767 80.6521 12.87C80.4521 13.2567 80.1654 13.5633 79.7921 13.79C79.4254 14.01 78.9954 14.12 78.5021 14.12ZM78.4121 13.39C78.7454 13.39 79.0388 13.3133 79.2921 13.16C79.5454 13 79.7454 12.78 79.8921 12.5C80.0388 12.22 80.1121 11.8933 80.1121 11.52C80.1121 11.1467 80.0388 10.82 79.8921 10.54C79.7454 10.26 79.5454 10.0433 79.2921 9.89C79.0388 9.73 78.7454 9.65 78.4121 9.65C78.0788 9.65 77.7854 9.73 77.5321 9.89C77.2788 10.0433 77.0788 10.26 76.9321 10.54C76.7854 10.82 76.7121 11.1467 76.7121 11.52C76.7121 11.8933 76.7854 12.22 76.9321 12.5C77.0788 12.78 77.2788 13 77.5321 13.16C77.7854 13.3133 78.0788 13.39 78.4121 13.39ZM82.271 16.2L83.501 13.52H83.211L81.241 9.04H82.151L83.791 12.9L85.531 9.04H86.401L83.151 16.2H82.271ZM89.9841 14V7H94.3141V7.69H90.8241V10.13H94.0141V10.81H90.8241V13.31H94.3141V14H89.9841ZM95.0787 14L96.7987 11.52L95.0787 9.04H95.9887L97.3787 11.09L98.7787 9.04H99.6787L97.9587 11.52L99.6787 14H98.7787L97.3787 11.95L95.9887 14H95.0787ZM100.559 16.2V9.04H101.319L101.399 9.86C101.559 9.62 101.786 9.40333 102.079 9.21C102.379 9.01667 102.759 8.92 103.219 8.92C103.712 8.92 104.142 9.03333 104.509 9.26C104.876 9.48667 105.159 9.79667 105.359 10.19C105.566 10.5833 105.669 11.03 105.669 11.53C105.669 12.03 105.566 12.4767 105.359 12.87C105.159 13.2567 104.872 13.5633 104.499 13.79C104.132 14.01 103.702 14.12 103.209 14.12C102.802 14.12 102.439 14.0367 102.119 13.87C101.806 13.7033 101.566 13.47 101.399 13.17V16.2H100.559ZM103.119 13.39C103.452 13.39 103.746 13.3133 103.999 13.16C104.252 13 104.452 12.78 104.599 12.5C104.746 12.22 104.819 11.8933 104.819 11.52C104.819 11.1467 104.746 10.82 104.599 10.54C104.452 10.26 104.252 10.0433 103.999 9.89C103.746 9.73 103.452 9.65 103.119 9.65C102.786 9.65 102.492 9.73 102.239 9.89C101.986 10.0433 101.786 10.26 101.639 10.54C101.492 10.82 101.419 11.1467 101.419 11.52C101.419 11.8933 101.492 12.22 101.639 12.5C101.786 12.78 101.986 13 102.239 13.16C102.492 13.3133 102.786 13.39 103.119 13.39ZM109.068 14.12C108.595 14.12 108.175 14.0133 107.808 13.8C107.442 13.58 107.152 13.2767 106.938 12.89C106.732 12.5033 106.628 12.0467 106.628 11.52C106.628 11 106.732 10.5467 106.938 10.16C107.145 9.76667 107.432 9.46333 107.798 9.25C108.172 9.03 108.602 8.92 109.088 8.92C109.568 8.92 109.982 9.03 110.328 9.25C110.682 9.46333 110.952 9.74667 111.138 10.1C111.325 10.4533 111.418 10.8333 111.418 11.24C111.418 11.3133 111.415 11.3867 111.408 11.46C111.408 11.5333 111.408 11.6167 111.408 11.71H107.458C107.478 12.09 107.565 12.4067 107.718 12.66C107.878 12.9067 108.075 13.0933 108.308 13.22C108.548 13.3467 108.802 13.41 109.068 13.41C109.415 13.41 109.705 13.33 109.938 13.17C110.172 13.01 110.342 12.7933 110.448 12.52H111.278C111.145 12.98 110.888 13.3633 110.508 13.67C110.135 13.97 109.655 14.12 109.068 14.12ZM109.068 9.63C108.668 9.63 108.312 9.75333 107.998 10C107.692 10.24 107.515 10.5933 107.468 11.06H110.588C110.568 10.6133 110.415 10.2633 110.128 10.01C109.842 9.75667 109.488 9.63 109.068 9.63ZM112.532 14V9.04H113.292L113.362 9.99C113.515 9.66333 113.748 9.40333 114.062 9.21C114.375 9.01667 114.762 8.92 115.222 8.92V9.8H114.992C114.698 9.8 114.428 9.85333 114.182 9.96C113.935 10.06 113.738 10.2333 113.592 10.48C113.445 10.7267 113.372 11.0667 113.372 11.5V14H112.532ZM118.125 14C117.671 14 117.315 13.89 117.055 13.67C116.795 13.45 116.665 13.0533 116.665 12.48V9.75H115.805V9.04H116.665L116.775 7.85H117.505V9.04H118.965V9.75H117.505V12.48C117.505 12.7933 117.568 13.0067 117.695 13.12C117.821 13.2267 118.045 13.28 118.365 13.28H118.885V14H118.125Z" fill="white"/>

</svg>
