<svg width="10" height="10" viewBox="0 0 10 10" fill="none" xmlns="http://www.w3.org/2000/svg">
<path d="M4.50098 0.0133057C3.19043 0.153931 2.00293 0.780884 1.16699 1.77698C0.579102 2.4762 0.213867 3.26917 0.0517578 4.19885C0.0146484 4.41174 0.0107422 4.51526 0.0107422 4.99963C0.0107422 5.48401 0.0146484 5.58752 0.0517578 5.80042C0.235352 6.8551 0.676758 7.72815 1.40527 8.48401C2.15332 9.26135 3.09668 9.75354 4.19824 9.9469C4.41113 9.98401 4.51465 9.98792 4.99902 9.98792C5.61035 9.98792 5.79395 9.96838 6.27442 9.84534C7.94629 9.4137 9.32324 8.07776 9.80176 6.41956C9.95801 5.88049 9.98926 5.64612 9.98926 4.99963C9.98926 4.35315 9.95801 4.11877 9.80176 3.57971C9.32324 1.92151 7.94629 0.585571 6.27442 0.153931C5.83106 0.0406494 5.62207 0.0152588 5.07715 0.00939941C4.80371 0.00549316 4.54395 0.00744629 4.50098 0.0133057ZM5.53809 0.712524C6.33496 0.817993 7.0459 1.11682 7.68457 1.61682C7.76074 1.67737 7.92676 1.83167 8.05762 1.96057C8.46387 2.36877 8.74902 2.79065 8.97363 3.31018C9.20606 3.85315 9.31543 4.39417 9.31543 4.99963C9.31543 5.9762 9.02246 6.83167 8.40918 7.64612C8.26856 7.83362 7.87598 8.23206 7.68457 8.38245C6.89551 8.99963 5.98731 9.31604 4.99902 9.31604C4.12793 9.31604 3.31543 9.06995 2.59668 8.58752C2.14746 8.28479 1.71387 7.8512 1.41113 7.40198C0.680664 6.31409 0.483398 4.93518 0.879883 3.6969C1.34863 2.23206 2.5791 1.10706 4.06738 0.778931C4.51074 0.683228 5.10059 0.655884 5.53809 0.712524Z" fill="#5F527A"/>
<path d="M4.85156 1.49414C4.77148 1.53711 4.72656 1.58008 4.6875 1.65039C4.66016 1.70312 4.65625 1.88086 4.65039 3.50977L4.64453 5.3125H6.09766H7.54883L7.63477 5.26758C7.87305 5.14844 7.86914 4.78516 7.62891 4.66992C7.54688 4.62891 7.52148 4.62891 6.44727 4.62891H5.35156L5.3457 3.16797C5.33984 1.53906 5.34766 1.64258 5.20117 1.53125C5.11328 1.46289 4.94141 1.44531 4.85156 1.49414Z" fill="#5F527A"/>
</svg>
