<svg width="48" height="48" viewBox="0 0 48 48" fill="none" xmlns="http://www.w3.org/2000/svg">
<defs>
<linearGradient id="paint0_linear_1061_40922" x1="3.57628e-07" y1="48" x2="51.9431" y2="43.2661" gradientUnits="userSpaceOnUse">
<stop stop-color="#4313A1"/>
<stop offset="0.9999" stop-color="#BD4238"/>
<stop offset="1" stop-color="#FF5C00"/>
</linearGradient>
<linearGradient id="paint1_linear_1061_40922" x1="11.3688" y1="33.5367" x2="24.1738" y2="16.9279" gradientUnits="userSpaceOnUse">
<stop offset="0.13" stop-color="white"/>
<stop offset="0.45" stop-color="#AFAFAF"/>
<stop offset="0.63" stop-color="#AAADAD"/>
<stop offset="0.79"/>
<stop offset="0.97" stop-color="#D6D8D8"/>
<stop offset="1" stop-color="white"/>
</linearGradient>
<linearGradient id="paint2_linear_1061_40922" x1="15.1048" y1="14.8565" x2="42.5417" y2="37.984" gradientUnits="userSpaceOnUse">
<stop offset="0.05" stop-color="white"/>
<stop offset="0.26" stop-color="white"/>
<stop offset="0.51" stop-color="#EAEAEA"/>
<stop offset="0.9" stop-color="white"/>
</linearGradient>
</defs>
<circle cx="24" cy="24" r="24" fill="url(#paint0_linear_1061_40922)"/>
<path d="M24.3676 25.0623C22.787 26.6073 21.2163 28.1623 19.637 29.7086C18.4007 30.9192 17.1695 32.5773 15.4307 33.0542C13.0782 33.7004 10.4413 32.3454 9.83508 29.9329C9.6524 29.2115 9.65951 28.4552 9.85571 27.7373C10.3301 26.0336 11.7932 24.7704 12.9051 23.4736C14.2382 21.9186 15.3682 21.2973 16.6932 19.7348C16.7151 19.7086 17.8907 20.8473 17.9238 20.8392L24.3676 25.0623Z" fill="url(#paint1_linear_1061_40922)"/>
<path d="M38.2129 28.0103C39.0254 32.2603 33.8111 34.9978 30.6979 31.9915C27.7504 29.1471 23.7117 25.1434 23.6154 25.0478C16.4379 18.3459 13.1429 23.4165 13.1979 23.1252C13.2373 22.9196 13.3779 22.7253 13.4929 22.5553C13.6942 22.2584 13.9198 21.9784 14.1492 21.7021C14.7611 20.9659 15.4142 20.2646 16.0729 19.5677C16.7142 18.8915 17.365 18.2248 18.0254 17.5677C18.4904 17.1015 18.9573 16.6302 19.4879 16.2402C19.9905 15.8761 20.5337 15.5718 21.1067 15.3334C22.0627 14.9184 23.0979 14.7174 24.1398 14.7446C25.0377 14.7814 25.9213 14.9824 26.7467 15.3377C27.4843 15.6552 28.1798 16.0626 28.8173 16.5509C29.3254 16.936 29.8017 17.3613 30.2417 17.8227C30.4721 18.0614 30.6901 18.3117 30.8948 18.5727C30.9367 18.6265 30.9798 18.6784 31.0242 18.7302L37.2198 25.9565C37.6837 26.4885 38.0107 27.1257 38.1723 27.8128C38.1879 27.8803 38.2004 27.9453 38.2129 28.0103Z" fill="url(#paint2_linear_1061_40922)"/>

</svg>
